4.49011,50.7669,62.5
4.49009,50.7668,75.5
4.49009,50.7668,75.5
4.49009,50.7668,75.5
4.49009,50.7668,75.5
4.49009,50.7668,75.5
4.49009,50.7668,75.5
4.49009,50.7668,75.5
4.49009,50.7668,75.5
4.49009,50.7668,75.5
4.49009,50.7668,75.5
4.49009,50.7668,75.5
4.49009,50.7668,75.5
4.49009,50.7668,75.5
4.49009,50.7668,75.5
4.49009,50.7668,75.5
4.49009,50.7668,75.5
4.49009,50.7668,75.5
4.49009,50.7668,75.5
4.49009,50.7668,75.5
4.49009,50.7668,75.5
4.49009,50.7668,75.5
4.49009,50.7668,75.5
4.49009,50.7668,75.5
4.49009,50.7668,75.5
4.49009,50.7668,75.5
4.49009,50.7668,75.5
4.49009,50.7668,75.5
4.49009,50.7668,75.5
4.49009,50.7668,75.5
4.49009,50.7668,75.5
4.49009,50.7668,75.5
4.49009,50.7668,75.5
4.49009,50.7668,75.5
4.49009,50.7668,75.5
4.49009,50.7668,75.5
4.49009,50.7668,75.5
4.49009,50.7668,75.5
4.49009,50.7668,75.5
4.49009,50.7668,75.5
4.49009,50.7668,75.5
4.49009,50.7668,75.5
4.49009,50.7668,75.5
4.49009,50.7668,75.5
4.49009,50.7668,75.5
4.49009,50.7668,75.5
4.49009,50.7668,75.5
4.49009,50.7668,75.5
4.49009,50.7668,75.5
4.49009,50.7668,75.5
4.49009,50.7668,75.5
4.49009,50.7668,75.5
4.49009,50.7668,75.5
4.49009,50.7668,75.5
4.49009,50.7668,75.5
4.49009,50.7668,75.5
4.49009,50.7668,75.5
4.49009,50.7668,75.5
4.49009,50.7668,75.5
4.49009,50.7668,75.5
4.49009,50.7668,75.5
4.49009,50.7668,75.5
4.49009,50.7668,75.5
4.49009,50.7668,75.5
4.49009,50.7668,75.5
4.49009,50.7668,75.5
4.49009,50.7668,75.5
4.49009,50.7668,75.5
4.49009,50.7668,75.5
4.49009,50.7668,75.5
4.49009,50.7668,75.5
4.49009,50.7668,75.5
4.49009,50.7668,75.5
4.49009,50.7668,75.5
4.49009,50.7668,75.5
4.49009,50.7668,75.5
4.49009,50.7668,75.5
4.49009,50.7668,75.5
4.49009,50.7668,75.5
4.49009,50.7668,75.5
4.49009,50.7668,75.5
4.49009,50.7668,75.5
4.49009,50.7668,75.5
4.49009,50.7668,75.5
4.49009,50.7668,75.5
4.49009,50.7668,75.5
4.49009,50.7668,75.5
4.49009,50.7668,75.5
4.49009,50.7668,75.5
4.49009,50.7668,75.5
4.49009,50.7668,75.5
4.49009,50.7668,75.5
4.49009,50.7668,75.5
4.49009,50.7668,75.5
4.49009,50.7668,75.5
4.49009,50.7668,75.5
4.49009,50.7668,75.5
4.49009,50.7668,75.5
4.49009,50.7668,75.5
4.49009,50.7668,75.5
4.49009,50.7668,75.5
4.49009,50.7668,75.5
4.49009,50.7668,75.5
4.49009,50.7668,75.5
4.49009,50.7668,75.5
4.49009,50.7668,75.5
4.49009,50.7668,75.5
4.49009,50.7668,75.5
4.49009,50.7668,75.5
4.49009,50.7668,75.5
4.49009,50.7668,75.5
4.49009,50.7668,75.5
4.49009,50.7668,75.5
4.49009,50.7668,75.5
4.49009,50.7668,75.5
4.49009,50.7668,75.5
4.49009,50.7668,75.5
4.49009,50.7668,75.5
4.49009,50.7668,75.5
4.49009,50.7668,75.5
4.49009,50.7668,75.5
4.49009,50.7668,75.5
4.49009,50.7668,75.5
4.49009,50.7668,75.5
4.49009,50.7668,75.5
4.49009,50.7668,75.5
4.49009,50.7668,75.5
4.49009,50.7668,75.5
4.49009,50.7668,75.5
4.49009,50.7668,75.5
4.49009,50.7668,75.5
4.49009,50.7668,75.5
4.49009,50.7668,75.5
4.49009,50.7668,75.5
4.49009,50.7668,75.5
4.49009,50.7668,75.5
4.49009,50.7668,75.5
4.49009,50.7668,75.5
4.49009,50.7668,75.5
4.49009,50.7668,75.5
4.49009,50.7668,75.5
4.49009,50.7668,75.5
4.49009,50.7668,75.5
4.49009,50.7668,75.5
4.49009,50.7668,75.5
4.49009,50.7668,75.5
4.49009,50.7668,75.5
4.49009,50.7668,75.5
4.49009,50.7668,75.5
4.49009,50.7668,75.5
4.49009,50.7668,75.5
4.49009,50.7668,75.5
4.49009,50.7668,75.5
4.49009,50.7668,75.5
4.49009,50.7668,75.5
4.49009,50.7668,75.5
4.49009,50.7668,75.5
4.49009,50.7668,75.5
4.49009,50.7668,75.5
4.49009,50.7668,75.5
4.49009,50.7668,75.5
4.49009,50.7668,75.5
4.49009,50.7668,75.5
4.49009,50.7668,75.5
4.49009,50.7668,75.5
4.49009,50.7668,75.5
4.49009,50.7668,75.5
4.49009,50.7668,75.5
4.49009,50.7668,75.5
4.49009,50.7668,75.5
4.49009,50.7668,75.5
4.49009,50.7668,75.5
4.49009,50.7668,75.5
4.49009,50.7668,75.5
4.49009,50.7668,75.5
4.49009,50.7668,75.5
4.49009,50.7668,75.5
4.49009,50.7668,75.5
4.49009,50.7668,75.5
4.49009,50.7668,75.5
4.49009,50.7668,75.5
4.49009,50.7668,75.5
4.49009,50.7668,75.5
4.49009,50.7668,75.5
4.49009,50.7668,75.5
4.49009,50.7668,75.5
4.49009,50.7668,75.5
4.49009,50.7668,75.5
4.49009,50.7668,75.5
4.49009,50.7668,75.5
4.49009,50.7668,75.5
4.49009,50.7668,75.5
4.49009,50.7668,75.5
4.49009,50.7668,75.5
4.49009,50.7668,75.5
4.49009,50.7668,75.5
4.49009,50.7668,75.5
4.49009,50.7668,75.5
4.49009,50.7668,75.5
4.49009,50.7668,75.5
4.49009,50.7668,75.5
4.49009,50.7668,75.5
4.49009,50.7668,75.5
4.49009,50.7668,75.5
4.49009,50.7668,75.5
4.49009,50.7668,75.5
4.49009,50.7668,75.5
4.49009,50.7668,75.5
4.49009,50.7668,75.5
4.49009,50.7668,75.5
4.49009,50.7668,75.5
4.49009,50.7668,75.5
4.49009,50.7668,75.5
4.49009,50.7668,75.5
4.49009,50.7668,75.5
4.49009,50.7668,75.5
4.49009,50.7668,75.5
4.49009,50.7668,75.5
4.49009,50.7668,75.5
4.49009,50.7668,75.5
4.49009,50.7668,75.5
4.49009,50.7668,75.5
4.49009,50.7668,75.5
4.49009,50.7668,75.5
4.49009,50.7668,75.5
4.49009,50.7668,75.5
4.49009,50.7668,75.5
4.49009,50.7668,75.5
4.49009,50.7668,75.5
4.49009,50.7668,75.5
4.49009,50.7668,75.5
4.49009,50.7668,75.5
4.49009,50.7668,75.5
4.49009,50.7668,75.5
4.49009,50.7668,75.5
4.49009,50.7668,75.5
4.49009,50.7668,75.5
4.49009,50.7668,75.5
4.49009,50.7668,75.5
4.49009,50.7668,75.5
4.49009,50.7668,75.5
4.49009,50.7668,75.5
4.49009,50.7668,75.5
4.49009,50.7668,75.5
4.49009,50.7668,75.5
4.49009,50.7668,75.5
4.49009,50.7668,75.5
4.49009,50.7668,75.5
4.49009,50.7668,75.5
4.49009,50.7668,75.5
4.49009,50.7668,75.5
4.49009,50.7668,75.5
4.49009,50.7668,75.5
4.49009,50.7668,75.5
4.49009,50.7668,75.5
4.49009,50.7668,75.5
4.49009,50.7668,75.5
4.49009,50.7668,75.5
4.49009,50.7668,75.5
4.49009,50.7668,75.5
4.49009,50.7668,75.5
4.49009,50.7668,75.5
4.49009,50.7668,75.5
4.49009,50.7668,75.5
4.49009,50.7668,75.5
4.49009,50.7668,75.5
4.49009,50.7668,75.5
4.49009,50.7668,75.5
4.49009,50.7668,75.5
4.49009,50.7668,75.5
4.49009,50.7668,75.5
4.49009,50.7668,75.5
4.49009,50.7668,75.5
4.49009,50.7668,75.5
4.49009,50.7668,75.5
4.49009,50.7668,75.5
4.49009,50.7668,75.5
4.49009,50.7668,75.5
4.49009,50.7668,75.5
4.49009,50.7668,75.5
4.49009,50.7668,75.5
4.49009,50.7668,75.5
4.49009,50.7668,75.5
4.49009,50.7668,75.5
4.49009,50.7668,75.5
4.49009,50.7668,75.5
4.49009,50.7668,75.5
4.49009,50.7668,75.5
4.49009,50.7668,75.5
4.49009,50.7668,75.5
4.49009,50.7668,75.5
4.49009,50.7668,75.5
4.49009,50.7668,75.5
4.49009,50.7668,75.5
4.49009,50.7668,75.5
4.49009,50.7668,75.5
4.49009,50.7668,75.5
4.49009,50.7668,75.5
4.49009,50.7668,75.5
4.49009,50.7668,75.5
4.49009,50.7668,75.5
4.49009,50.7668,75.5
4.49009,50.7668,75.5
4.49009,50.7668,75.5
4.49009,50.7668,75.5
4.49009,50.7668,75.5
4.49009,50.7668,75.5
4.49009,50.7668,75.5
4.49009,50.7668,75.5
4.49009,50.7668,75.5
4.49009,50.7668,75.5
4.49009,50.7668,75.5
4.49009,50.7668,75.5
4.49004,50.7669,229.8
4.49004,50.7669,230.1
4.49004,50.7669,230.0
4.49004,50.7669,229.9
4.49004,50.7669,229.4
4.49004,50.7669,229.8
4.49004,50.7669,229.7
4.49004,50.7669,229.9
4.49004,50.7669,229.6
4.49004,50.7669,229.8
4.49004,50.7669,229.8
4.49004,50.7669,229.6
4.49004,50.7669,230.0
4.49004,50.7669,229.8
4.49004,50.7669,229.8
4.49004,50.7669,229.7
4.49004,50.7669,229.8
4.49004,50.7669,229.8
4.49004,50.7669,230.1
4.49004,50.7669,229.6
4.49004,50.7669,229.5
4.49004,50.7669,229.7
4.49004,50.7669,229.8
4.49004,50.7669,229.7
4.49004,50.7669,229.8
4.49004,50.7669,229.7
4.49004,50.7669,229.9
4.49004,50.7669,229.5
4.49004,50.7669,229.9
4.49004,50.7669,229.8
4.49004,50.7669,229.9
4.49004,50.7669,229.7
4.49004,50.7669,229.7
4.49004,50.7669,229.6
4.49004,50.7669,229.8
4.49004,50.7669,229.9
4.49004,50.7669,229.9
4.49004,50.7669,229.7
4.49004,50.7669,229.7
4.49004,50.7669,229.5
4.49004,50.7669,229.8
4.49004,50.7669,229.5
4.49004,50.7669,229.7
4.49004,50.7669,229.6
4.49004,50.7669,229.8
4.49004,50.7669,229.8
4.49004,50.7669,229.8
4.49004,50.7669,229.7
4.49004,50.7669,230.0
4.49004,50.7669,229.6
4.49004,50.7669,230.0
4.49004,50.7669,229.7
4.49004,50.7669,229.9
4.49004,50.7669,230.0
4.49004,50.7669,230.2
4.49004,50.7669,230.0
4.49004,50.7669,230.0
4.49004,50.7669,229.9
4.49004,50.7669,229.9
4.49004,50.7669,229.7
4.49004,50.7669,229.9
4.49004,50.7669,230.0
4.49004,50.7669,229.7
4.49004,50.7669,229.7
4.49004,50.7669,229.9
4.49004,50.7669,229.7
4.49004,50.7669,229.9
4.49004,50.7669,229.9
4.49004,50.7669,230.0
4.49004,50.7669,229.8
4.49004,50.7669,229.8
4.49004,50.7669,229.7
4.49004,50.7669,229.8
4.49004,50.7669,229.9
4.49004,50.7669,230.3
4.49004,50.7669,230.0
4.49004,50.7669,229.8
4.49004,50.7669,230.0
4.49004,50.7669,229.5
4.49004,50.7669,230.0
4.49004,50.7669,229.9
4.49004,50.7669,230.0
4.49004,50.7669,229.7
4.49004,50.7669,229.8
4.49004,50.7669,229.4
4.49004,50.7669,229.8
4.49004,50.7669,229.6
4.49004,50.7669,229.7
4.49004,50.7669,229.6
4.49004,50.7669,229.8
4.49004,50.7669,229.5
4.49004,50.7669,229.8
4.49004,50.7669,230.0
4.49004,50.7669,229.9
4.49004,50.7669,229.6
4.49004,50.7669,229.7
4.49004,50.7669,229.6
4.49004,50.7669,229.8
4.49004,50.7669,229.5
4.49004,50.7669,229.6
4.49004,50.7669,229.9
4.49004,50.7669,229.7
4.49004,50.7669,229.7
4.49004,50.7669,230.1
4.49004,50.7669,229.7
4.49004,50.7669,229.9
4.49004,50.7669,229.9
4.49004,50.7669,230.1
4.49004,50.7669,229.8
4.49004,50.7669,229.8
4.49004,50.7669,229.8
4.49004,50.7669,229.8
4.49004,50.7669,229.9
4.49004,50.7669,229.9
4.49004,50.7669,229.8
4.49004,50.7669,230.1
4.49004,50.7669,229.9
4.49004,50.7669,230.0
4.49004,50.7669,230.0
4.49004,50.7669,229.9
4.49004,50.7669,229.9
4.49004,50.7669,230.1
4.49004,50.7669,229.8
4.49004,50.7669,230.0
4.49004,50.7669,230.0
4.49004,50.7669,229.9
4.49004,50.7669,229.7
4.49004,50.7669,229.9
4.49004,50.7669,229.8
4.49004,50.7669,229.8
4.49004,50.7669,230.0
4.49004,50.7669,229.6
4.49004,50.7669,229.7
4.49004,50.7669,229.7
4.49004,50.7669,229.7
4.49004,50.7669,229.8
4.49004,50.7669,229.5
4.49004,50.7669,229.9
4.49004,50.7669,229.7
4.49004,50.7669,229.8
4.49004,50.7669,229.9
4.49004,50.7669,230.1
4.49004,50.7669,230.1
4.49004,50.7669,229.8
4.49004,50.7669,229.7
4.49004,50.7669,229.8
4.49004,50.7669,229.8
4.49004,50.7669,229.6
4.49004,50.7669,229.6
4.49004,50.7669,229.8
4.49004,50.7669,229.7
4.49004,50.7669,230.1
4.49004,50.7669,229.8
4.49004,50.7669,229.8
4.49004,50.7669,229.8
4.49004,50.7669,229.9
4.49004,50.7669,229.6
4.49004,50.7669,229.9
4.49004,50.7669,229.7
4.49004,50.7669,229.8
4.49004,50.7669,229.8
4.49004,50.7669,229.7
4.49004,50.7669,229.7
4.49004,50.7669,229.9
4.49004,50.7669,229.8
4.49004,50.7669,229.9
4.49004,50.7669,229.6
4.49004,50.7669,229.8
4.49004,50.7669,229.9
4.49004,50.7669,229.8
4.49004,50.7669,229.7
4.49004,50.7669,229.9
4.49004,50.7669,229.7
4.49004,50.7669,229.8
4.49004,50.7669,229.8
4.49004,50.7669,229.9
4.49004,50.7669,230.0
4.49004,50.7669,230.0
4.49004,50.7669,230.0
4.49004,50.7669,230.0
4.49004,50.7669,230.1
4.49004,50.7669,230.0
4.49004,50.7669,229.9
4.49004,50.7669,230.0
4.49004,50.7669,229.8
4.49004,50.7669,230.0
4.49004,50.7669,229.9
4.49004,50.7669,230.1
4.49004,50.7669,229.9
4.49004,50.7669,229.7
4.49004,50.7669,229.5
4.49004,50.7669,229.9
4.49004,50.7669,229.8
4.49004,50.7669,229.7
4.49004,50.7669,229.8
4.49004,50.7669,230.0
4.49004,50.7669,229.7
4.49004,50.7669,229.9
4.49004,50.7669,229.4
4.49004,50.7669,229.9
4.49004,50.7669,229.6
4.49004,50.7669,229.7
4.49004,50.7669,229.8
4.49004,50.7669,229.8
4.49004,50.7669,229.8
4.49004,50.7669,230.1
4.49004,50.7669,229.8
4.49004,50.7669,229.8
4.49004,50.7669,229.6
4.49004,50.7669,229.8
4.49004,50.7669,229.9
4.49004,50.7669,229.6
4.49004,50.7669,229.9
4.49004,50.7669,230.0
4.49004,50.7669,229.6
4.49004,50.7669,230.0
4.49004,50.7669,230.0
4.49004,50.7669,229.9
4.49004,50.7669,229.9
4.49004,50.7669,229.7
4.49004,50.7669,229.9
4.49004,50.7669,229.8
4.49004,50.7669,229.7
4.49004,50.7669,229.7
4.49004,50.7669,229.6
4.49004,50.7669,229.7
4.49004,50.7669,229.8
4.49004,50.7669,229.9
4.49004,50.7669,230.1
4.49004,50.7669,229.8
4.49004,50.7669,229.9
4.49004,50.7669,229.8
4.49004,50.7669,229.5
4.49004,50.7669,229.7
4.49004,50.7669,229.8
4.49004,50.7669,229.6
4.49004,50.7669,229.8
4.49004,50.7669,229.8
4.49004,50.7669,229.8
4.49004,50.7669,229.8
4.49004,50.7669,229.9
4.49004,50.7669,229.8
4.49004,50.7669,229.7
4.49004,50.7669,229.9
4.49004,50.7669,230.1
4.49004,50.7669,229.7
4.49004,50.7669,229.7
4.49004,50.7669,229.8
4.49004,50.7669,229.8
4.49004,50.7669,229.7
4.49004,50.7669,229.6
4.49004,50.7669,229.8
4.49004,50.7669,230.1
4.49004,50.7669,229.8
4.49004,50.7669,230.0
4.49004,50.7669,229.9
4.49004,50.7669,230.0
4.49004,50.7669,229.9
4.49004,50.7669,230.0
4.49004,50.7669,230.2
4.49018,50.7669,59.7
4.49018,50.7669,59.7
4.49018,50.7669,59.7
4.49016,50.767,59.7
4.49016,50.767,59.7
4.49016,50.767,59.7
4.49016,50.767,59.7
4.49016,50.767,59.7
4.49016,50.767,59.7
4.49016,50.767,59.7
4.49016,50.767,59.7
4.49016,50.767,59.7
4.49016,50.767,59.7
4.49016,50.767,59.7
4.49016,50.767,59.7
4.49016,50.767,59.7
4.49016,50.767,59.7
4.49016,50.767,59.7
4.49016,50.767,59.7
4.49016,50.767,59.7
4.49016,50.767,59.7
4.49016,50.767,59.7
4.49016,50.767,59.7
4.49016,50.767,59.7
