D,28.3,987.6,38.5,0.01,None,None,229.9,0.2,3.8,None
,4.57D,28.3,987.6,38.5,0.0,None,None,229.8,0.2,3.8,None
D,28.3,987.6,38.5,0.0,None,None,229.6,0.2,3.8,None
,4.58D,28.3,987.6,38.4,0.0,None,None,229.9,0.2,3.8,None
,4.57D,28.3,987.6,38.4,0.0,None,None,229.8,0.2,3.8,None
,4.57D,28.3,987.6,38.4,0.0,None,None,229.7,0.2,3.8,None
,4.57D,28.3,987.6,38.4,0.0,None,None,229.8,0.2,3.8,None
,4.57D,28.3,987.6,38.4,0.0,None,None,229.7,0.2,3.8,None
,4.57D,28.3,987.7,38.4,0.0,None,None,229.6,0.2,3.8,None
,4.57D,28.3,987.6,38.4,0.0,None,None,229.6,0.2,3.8,None
,4.57D,28.3,987.6,38.4,0.0,None,None,229.7,0.2,3.8,None
,4.57D,28.3,987.7,38.3,0.0,None,None,229.6,0.2,3.8,None
,4.57D,28.3,987.7,38.3,0.01,None,None,229.6,0.2,3.8,None
,4.57D,28.3,987.7,38.4,0.0,None,None,229.6,0.2,3.8,None
,4.57D,28.3,987.7,38.4,0.01,None,None,229.5,0.2,3.8,None
,4.57D,28.3,987.6,38.3,0.0,None,None,229.6,0.2,3.8,None
,4.57D,28.3,987.7,38.3,0.01,None,None,229.8,0.2,3.8,None
,4.57D,28.3,987.6,38.3,0.0,None,None,230.2,0.2,3.8,None
,4.57D,28.3,987.6,38.3,0.0,None,None,229.6,0.2,3.7,None
,4.57D,28.3,987.6,38.3,0.0,None,None,230.0,0.2,3.8,None
,4.57D,28.3,987.7,38.3,0.0,None,None,229.5,0.2,3.8,None
,4.57D,28.4,987.6,36.5,0.0,50.7669,4.49004,229.8,0.3,3.8,0.76
,4.55D,28.4,987.6,36.5,0.0,50.7669,4.49004,230.1,0.3,3.8,0.76
D,28.4,987.6,36.5,0.0,50.7669,4.49004,229.8,0.3,3.8,0.76
D,28.4,987.6,36.5,0.0,50.7669,4.49004,230.1,0.3,3.8,0.76
D,28.4,987.6,36.5,0.01,50.7669,4.49004,230.0,0.3,3.8,0.76
D,28.4,987.7,36.5,0.0,50.7669,4.49004,229.9,0.2,3.8,0.76
D,28.4,987.6,36.4,0.0,50.7669,4.49004,230.0,0.2,3.8,0.76
D,28.4,987.6,36.4,0.0,50.7669,4.49004,229.9,0.3,3.8,0.76
D,28.4,987.6,36.4,0.0,50.7669,4.49004,230.0,0.3,3.8,0.76
D,28.4,987.6,36.4,0.01,50.7669,4.49004,229.8,0.2,3.7,0.76
D,28.4,987.6,36.5,0.0,50.7669,4.49004,229.9,0.3,3.8,0.76
D,28.4,987.7,36.5,0.0,50.7669,4.49004,229.2,0.3,3.8,0.76
,4.55D,28.4,987.6,36.5,0.0,50.7669,4.49004,230.0,0.3,3.8,0.76
D,28.4,987.6,36.5,0.0,50.7669,4.49004,229.8,0.2,3.8,0.76
,4.55D,28.4,987.6,36.4,0.0,50.7669,4.49004,229.9,0.3,3.8,0.76
,4.55D,28.4,987.6,36.4,0.0,50.7669,4.49004,229.4,0.3,3.8,0.76
,4.55D,28.4,987.7,36.4,0.0,50.7669,4.49004,229.8,0.3,3.8,0.76
,4.55D,28.4,987.7,36.4,0.0,50.7669,4.49004,229.7,0.3,3.8,0.76
,4.55D,28.4,987.6,36.4,0.0,50.7669,4.49004,229.9,0.3,3.8,0.76
,4.55D,28.4,987.6,36.4,0.01,50.7669,4.49004,229.6,0.3,3.8,0.76
,4.54D,28.4,987.6,36.4,0.0,50.7669,4.49004,229.8,0.3,3.8,0.76
,4.55D,28.4,987.6,36.5,0.0,50.7669,4.49004,229.8,0.3,3.8,0.76
,4.55D,28.4,987.6,36.5,0.0,50.7669,4.49004,229.6,0.3,3.8,0.76
,4.55D,28.4,987.6,36.4,0.0,50.7669,4.49004,230.0,0.3,3.8,0.76
,4.55D,28.4,987.6,36.4,0.0,50.7669,4.49004,229.8,0.3,3.8,0.76
,4.55D,28.4,987.6,36.4,0.0,50.7669,4.49004,229.8,0.3,3.8,0.76
,4.55D,28.4,987.6,36.4,0.0,50.7669,4.49004,229.7,0.3,3.8,0.76
,4.55D,28.4,987.6,36.4,0.0,50.7669,4.49004,229.8,0.2,3.8,0.76
,4.55D,28.4,987.6,36.4,0.0,50.7669,4.49004,229.8,0.3,3.8,0.76
,4.55D,28.4,987.7,36.4,0.0,50.7669,4.49004,230.1,0.3,3.8,0.76
,4.55D,28.4,987.6,36.4,0.0,50.7669,4.49004,229.6,0.3,3.8,0.76
,4.55D,28.9,987.6,6538.8,0.01,50.7669,4.49004,229.5,0.3,3.8,0.76
,4.54D,28.4,987.7,6538.8,0.0,50.7669,4.49004,229.7,0.3,3.8,0.76
,4.55D,28.4,987.7,36.4,0.01,50.7669,4.49004,229.8,0.3,3.7,0.76
,4.54D,28.4,987.7,36.4,0.0,50.7669,4.49004,229.7,0.3,3.8,0.76
,4.55D,28.3,987.6,36.3,0.0,50.7669,4.49004,229.8,0.3,3.8,0.76
,4.55D,28.3,987.6,36.3,0.0,50.7669,4.49004,229.7,0.3,3.8,0.76
,4.55D,28.4,987.6,36.4,0.0,50.7669,4.49004,229.9,0.3,3.8,0.76
,4.55D,28.4,987.7,36.4,0.0,50.7669,4.49004,229.5,0.3,3.8,0.76
,4.55D,28.4,987.6,36.3,0.0,50.7669,4.49004,229.9,0.2,3.8,0.76
,4.55D,28.4,987.6,36.3,0.0,50.7669,4.49004,229.8,0.2,3.8,0.76
,4.55D,28.4,987.6,36.3,0.0,50.7669,4.49004,229.9,0.3,3.8,0.76
,4.55D,28.4,987.7,36.3,0.0,50.7669,4.49004,229.7,0.3,3.8,0.76
,4.55D,28.3,987.7,36.2,0.0,50.7669,4.49004,229.7,0.2,3.8,0.76
,4.55D,28.3,987.6,36.2,0.0,50.7669,4.49004,229.6,0.3,3.8,0.76
,4.55D,28.4,987.6,36.3,0.0,50.7669,4.49004,229.8,0.2,3.8,0.76
,4.55D,28.4,987.6,36.3,0.0,50.7669,4.49004,229.9,0.2,3.8,0.76
,4.55D,28.4,987.6,36.3,0.01,50.7669,4.49004,229.9,0.2,3.8,0.76
,4.54D,28.4,987.7,36.3,0.0,50.7669,4.49004,229.7,0.3,3.8,0.76
,4.55D,28.4,987.6,36.2,0.0,50.7669,4.49004,229.7,0.3,3.8,0.76
,4.55D,28.4,987.7,36.2,0.01,50.7669,4.49004,229.5,0.3,3.8,0.76
,4.54D,28.4,987.7,36.1,0.0,50.7669,4.49004,229.8,0.2,3.8,0.76
,4.54D,28.4,987.6,36.1,0.0,50.7669,4.49004,229.5,0.3,3.8,0.76
,4.54D,28.4,987.7,36.1,0.0,50.7669,4.49004,229.7,0.3,3.8,0.76
,4.54D,28.3,987.6,36.1,0.0,50.7669,4.49004,229.6,0.3,3.8,0.76
,4.54D,28.4,987.7,36.2,0.0,50.7669,4.49004,229.8,0.2,3.8,0.76
,4.55D,28.4,987.7,36.2,0.0,50.7669,4.49004,229.8,0.3,3.8,0.76
,4.55D,28.4,987.7,36.1,0.01,50.7669,4.49004,229.8,0.3,3.8,0.76
,4.54D,28.3,987.7,36.1,0.0,50.7669,4.49004,229.7,0.3,3.8,0.76
,4.54D,28.4,987.6,36.1,0.0,50.7669,4.49004,230.0,0.3,3.8,0.76
,4.54D,28.3,987.6,36.1,0.0,50.7669,4.49004,229.6,0.3,3.8,0.76
,4.54D,28.3,987.6,36.1,0.0,50.7669,4.49004,230.0,0.2,3.8,0.76
,4.54D,28.3,987.6,36.1,0.0,50.7669,4.49004,229.7,0.3,3.8,0.76
,4.54D,28.4,987.6,36.1,0.0,50.7669,4.49004,229.9,0.3,3.8,0.76
,4.54D,28.4,987.6,36.1,0.01,50.7669,4.49004,230.0,0.3,3.8,0.76
,4.54D,28.3,987.6,36.0,0.0,50.7669,4.49004,230.2,0.3,3.8,0.76
,4.54D,28.3,987.6,36.0,0.0,50.7669,4.49004,230.0,0.2,3.8,0.76
,4.54D,28.3,987.6,36.0,0.0,50.7669,4.49004,230.0,0.3,3.8,0.76
,4.54D,28.3,987.6,36.0,0.0,50.7669,4.49004,229.9,0.3,3.8,0.76
,4.54D,28.3,987.6,36.0,0.0,50.7669,4.49004,229.9,0.3,3.8,0.76
,4.54D,28.3,987.6,36.0,0.0,50.7669,4.49004,229.7,0.2,3.8,0.76
,4.54D,28.3,987.6,36.0,0.0,50.7669,4.49004,229.9,0.3,3.8,0.76
,4.54D,28.3,987.6,36.0,0.0,50.7669,4.49004,230.0,0.2,3.8,0.76
,4.54D,28.3,987.6,36.0,0.0,50.7669,4.49004,229.7,0.3,3.8,0.76
,4.54D,28.3,987.6,36.0,0.0,50.7669,4.49004,229.7,0.3,3.8,0.76
,4.54D,28.3,987.6,36.0,0.0,50.7669,4.49004,229.9,0.2,3.8,0.76
,4.54D,28.3,987.7,36.0,0.0,50.7669,4.49004,229.7,0.3,3.8,0.76
,4.54D,28.3,987.7,35.9,0.01,50.7669,4.49004,229.9,0.3,3.8,0.76
,4.54D,28.3,987.6,35.9,0.0,50.7669,4.49004,229.9,0.3,3.8,0.76
,4.54D,28.3,987.6,35.9,0.0,50.7669,4.49004,230.0,0.3,3.8,0.76
,4.54D,28.3,987.6,35.9,0.0,50.7669,4.49004,229.8,0.3,3.8,0.76
,4.54D,28.3,987.6,35.9,0.0,50.7669,4.49004,229.8,0.3,3.8,0.76
,4.54D,28.3,987.6,35.9,0.0,50.7669,4.49004,229.7,0.3,3.8,0.76
,4.54D,28.3,987.6,35.9,0.0,50.7669,4.49004,229.8,0.3,3.8,0.76
,4.54D,28.3,987.6,35.9,0.0,50.7669,4.49004,229.9,0.3,3.8,0.76
,4.54D,28.3,987.6,35.9,0.0,50.7669,4.49004,230.3,0.2,3.8,0.76
,4.54D,28.3,987.6,35.9,0.0,50.7669,4.49004,230.0,0.2,3.8,0.76
,4.54D,28.3,987.7,35.9,0.0,50.7669,4.49004,229.8,0.3,3.8,0.76
,4.54D,28.3,987.6,35.9,0.0,50.7669,4.49004,230.0,0.3,3.8,0.76
,4.54D,28.3,987.7,35.9,0.0,50.7669,4.49004,229.5,0.3,3.8,0.76
,4.54D,28.3,987.7,35.9,0.0,50.7669,4.49004,230.0,0.3,3.8,0.76
,4.54D,28.3,987.6,35.9,0.01,50.7669,4.49004,229.9,0.3,3.8,0.76
,4.54D,28.3,987.6,35.9,0.0,50.7669,4.49004,230.0,0.3,3.8,0.76
,4.54D,28.3,987.7,35.9,0.01,50.7669,4.49004,229.7,0.3,3.8,0.76
,4.54D,28.3,987.7,35.9,0.0,50.7669,4.49004,229.8,0.3,3.8,0.76
,4.54D,28.3,987.7,35.9,0.0,50.7669,4.49004,229.4,0.2,3.8,0.76
,4.54D,28.3,987.6,35.8,0.01,50.7669,4.49004,229.8,0.2,3.8,0.76
,4.54D,28.3,987.7,35.8,0.0,50.7669,4.49004,229.6,0.3,3.8,0.76
,4.54D,28.3,987.6,35.8,0.01,50.7669,4.49004,229.7,0.3,3.8,0.76
,4.54D,28.3,987.7,35.8,0.0,50.7669,4.49004,229.6,0.3,3.8,0.76
,4.54D,28.3,987.6,35.8,0.0,50.7669,4.49004,229.8,0.3,3.8,0.76
,4.54D,28.3,987.6,35.8,0.01,50.7669,4.49004,229.5,0.3,3.8,0.76
,4.54D,28.3,987.6,35.8,0.0,50.7669,4.49004,229.8,0.3,3.8,0.76
,4.54D,28.3,987.6,35.8,0.0,50.7669,4.49004,230.0,0.3,3.8,0.76
,4.54D,28.3,987.6,35.8,0.01,50.7669,4.49004,229.9,0.3,3.8,0.76
,4.54D,28.3,987.7,35.8,0.0,50.7669,4.49004,229.6,0.3,3.8,0.76
,4.54D,28.3,987.6,35.8,0.0,50.7669,4.49004,229.7,0.2,3.8,0.76
,4.54D,28.3,987.7,35.8,0.0,50.7669,4.49004,229.6,0.3,3.8,0.76
,4.54D,28.3,987.7,35.8,0.0,50.7669,4.49004,229.8,0.2,3.8,0.76
,4.54D,28.3,987.6,35.8,0.0,50.7669,4.49004,229.5,0.3,3.8,0.76
,4.54D,28.3,987.7,35.8,0.0,50.7669,4.49004,229.6,0.3,3.8,0.76
,4.54D,28.3,987.6,35.8,0.0,50.7669,4.49004,229.9,0.2,3.8,0.76
,4.54D,28.3,987.7,35.8,0.0,50.7669,4.49004,229.7,0.3,3.8,0.76
,4.54D,28.3,987.6,35.8,0.0,50.7669,4.49004,229.7,0.3,3.8,0.76
,4.54D,28.3,987.6,35.8,0.0,50.7669,4.49004,230.1,0.2,3.8,0.76
,4.54D,28.3,987.6,35.8,0.01,50.7669,4.49004,229.7,0.2,3.8,0.76
,4.54D,28.3,987.6,35.8,0.0,50.7669,4.49004,229.9,0.3,3.8,0.76
,4.54D,28.3,987.6,35.8,0.0,50.7669,4.49004,229.9,0.2,3.8,0.76
,4.54D,28.3,987.6,35.8,0.01,50.7669,4.49004,230.1,0.2,3.8,0.76
,4.54D,28.3,987.6,35.8,0.0,50.7669,4.49004,229.8,0.2,3.8,0.76
,4.54D,28.3,987.6,35.8,0.0,50.7669,4.49004,229.8,0.2,3.8,0.76
,4.54D,28.3,987.6,35.8,0.0,50.7669,4.49004,229.8,0.2,3.8,0.76
,4.54D,28.3,987.7,35.8,0.0,50.7669,4.49004,229.8,0.3,3.8,0.76
,4.54D,28.3,987.6,35.8,0.0,50.7669,4.49004,229.9,0.3,3.8,0.76
,4.54D,28.3,987.7,35.8,0.01,50.7669,4.49004,229.9,0.3,3.8,0.76
,4.54D,28.3,987.6,35.8,0.01,50.7669,4.49004,229.8,0.3,3.8,0.76
,4.54D,28.3,987.6,35.8,0.0,50.7669,4.49004,230.1,0.3,3.8,0.76
,4.54D,28.3,987.6,35.8,0.0,50.7669,4.49004,229.9,0.3,3.8,0.76
,4.54D,28.3,987.6,35.8,0.01,50.7669,4.49004,230.0,0.2,3.8,0.76
,4.54D,28.3,987.6,35.8,0.0,50.7669,4.49004,230.0,0.2,3.8,0.76
,4.54D,28.3,987.6,35.8,0.01,50.7669,4.49004,229.9,0.2,3.8,0.76
,4.54D,28.3,987.6,35.8,0.0,50.7669,4.49004,229.9,0.2,3.8,0.76
,4.54D,28.3,987.6,35.8,0.0,50.7669,4.49004,230.1,0.3,3.8,0.76
,4.54D,28.3,987.6,35.8,0.0,50.7669,4.49004,229.8,0.2,3.8,0.76
,4.54D,28.3,987.6,35.8,0.0,50.7669,4.49004,230.0,0.2,3.8,0.76
,4.54D,28.3,987.6,35.8,0.0,50.7669,4.49004,230.0,0.3,3.8,0.76
,4.54D,28.3,987.6,35.7,0.0,50.7669,4.49004,229.9,0.3,3.8,0.76
,4.54D,28.3,987.6,35.7,0.0,50.7669,4.49004,229.7,0.3,3.8,0.76
,4.54D,28.3,987.6,35.8,0.0,50.7669,4.49004,229.9,0.3,3.8,0.76
,4.54D,28.3,987.6,35.8,0.0,50.7669,4.49004,229.8,0.2,3.8,0.76
,4.54D,28.3,987.6,35.8,0.0,50.7669,4.49004,229.8,0.2,3.8,0.76
,4.54D,28.3,987.6,35.8,0.0,50.7669,4.49004,230.0,0.3,3.8,0.76
,4.54D,28.3,987.6,35.8,0.0,50.7669,4.49004,229.6,0.3,3.8,0.76
,4.54D,28.3,987.7,35.8,0.0,50.7669,4.49004,229.7,0.3,3.8,0.76
,4.54D,28.3,987.6,35.8,0.0,50.7669,4.49004,229.7,0.3,3.8,0.76
,4.54D,28.3,987.7,35.8,0.0,50.7669,4.49004,229.7,0.2,3.8,0.76
,4.54D,28.3,987.6,35.8,0.0,50.7669,4.49004,229.8,0.2,3.8,0.76
,4.54D,28.3,987.7,35.8,0.0,50.7669,4.49004,229.5,0.3,3.8,0.76
,4.54D,28.3,987.6,35.8,0.0,50.7669,4.49004,229.9,0.2,3.8,0.76
,4.54D,28.3,987.7,35.8,0.0,50.7669,4.49004,229.7,0.3,3.8,0.76
,4.54D,28.3,987.6,35.8,0.0,50.7669,4.49004,229.8,0.3,3.8,0.76
,4.54D,28.3,987.6,35.8,0.0,50.7669,4.49004,229.9,0.3,3.8,0.76
,4.54D,28.3,987.6,35.8,0.0,50.7669,4.49004,230.1,0.3,3.8,0.76
,4.54D,28.3,987.6,35.8,0.0,50.7669,4.49004,230.1,0.2,3.8,0.76
,4.54D,28.3,987.6,35.8,0.0,50.7669,4.49004,229.8,0.3,3.8,0.76
,4.54D,28.3,987.7,35.8,0.0,50.7669,4.49004,229.7,0.3,3.8,0.76
,4.54D,28.3,987.6,35.8,0.01,50.7669,4.49004,229.8,0.3,3.8,0.76
,4.54D,28.3,987.7,35.8,0.0,50.7669,4.49004,229.8,0.3,3.8,0.76
,4.54D,28.3,987.7,35.8,0.0,50.7669,4.49004,229.6,0.3,3.8,0.76
,4.54D,28.3,987.6,35.8,0.0,50.7669,4.49004,229.6,0.2,3.8,0.76
,4.54D,28.3,987.7,35.8,0.0,50.7669,4.49004,229.8,0.3,3.8,0.76
,4.54D,28.3,987.6,35.8,0.0,50.7669,4.49004,229.7,0.3,3.8,0.76
,4.54D,28.3,987.6,35.8,0.0,50.7669,4.49004,230.1,0.2,3.8,0.76
,4.54D,28.3,987.6,35.8,0.0,50.7669,4.49004,229.8,0.2,3.8,0.76
,4.54D,28.3,987.6,35.8,0.0,50.7669,4.49004,229.8,0.3,3.8,0.76
,4.54D,28.3,987.7,35.8,0.0,50.7669,4.49004,229.8,0.2,3.8,0.76
,4.54D,28.3,987.6,35.8,0.0,50.7669,4.49004,229.9,0.2,3.8,0.76
,4.54D,28.3,987.6,35.8,0.01,50.7669,4.49004,229.6,0.3,3.8,0.76
,4.54D,28.3,987.7,35.7,0.01,50.7669,4.49004,229.9,0.3,3.8,0.76
,4.54D,28.3,987.7,35.7,0.0,50.7669,4.49004,229.7,0.3,3.8,0.76
,4.54D,28.3,987.6,35.8,0.0,50.7669,4.49004,229.8,0.2,3.8,0.76
,4.54D,28.3,987.6,35.8,0.0,50.7669,4.49004,229.8,0.3,3.8,0.76
,4.54D,28.3,987.7,35.7,0.0,50.7669,4.49004,229.7,0.3,3.8,0.76
,4.54D,28.3,987.6,35.7,0.0,50.7669,4.49004,229.7,0.3,3.8,0.76
,4.54D,28.3,987.6,35.7,0.0,50.7669,4.49004,229.9,0.2,3.8,0.76
,4.54D,28.3,987.6,35.7,0.01,50.7669,4.49004,229.8,0.2,3.8,0.76
,4.54D,28.3,987.6,35.7,0.01,50.7669,4.49004,229.9,0.3,3.8,0.76
,4.54D,28.3,987.7,35.7,0.0,50.7669,4.49004,229.6,0.3,3.8,0.76
,4.54D,28.3,987.6,35.8,0.0,50.7669,4.49004,229.8,0.2,3.8,0.76
,4.54D,28.3,987.6,35.8,0.0,50.7669,4.49004,229.9,0.3,3.8,0.76
,4.54D,28.3,987.6,35.7,0.01,50.7669,4.49004,229.8,0.3,3.8,0.76
,4.54D,28.3,987.6,35.7,0.0,50.7669,4.49004,229.7,0.3,3.8,0.76
,4.54D,28.3,987.6,35.7,0.0,50.7669,4.49004,229.9,0.3,3.8,0.76
,4.54D,28.3,987.7,35.7,0.0,50.7669,4.49004,229.7,0.3,3.8,0.76
,4.54D,28.3,987.6,35.7,0.0,50.7669,4.49004,229.8,0.3,3.8,0.76
,4.54D,28.3,987.6,35.7,0.0,50.7669,4.49004,229.8,0.3,3.8,0.76
,4.54D,28.3,987.6,35.7,0.01,50.7669,4.49004,229.9,0.3,3.8,0.76
,4.54D,28.3,987.6,35.7,0.0,50.7669,4.49004,230.0,0.3,3.8,0.76
,4.54D,28.3,987.6,35.7,0.0,50.7669,4.49004,230.0,0.3,3.8,0.76
,4.54D,28.3,987.6,35.7,0.0,50.7669,4.49004,230.0,0.2,3.8,0.76
,4.54D,28.3,987.6,35.7,0.0,50.7669,4.49004,230.0,0.3,3.8,0.76
,4.54D,28.3,987.6,35.7,0.0,50.7669,4.49004,230.1,0.2,3.8,0.76
,4.54D,28.3,987.6,35.7,0.0,50.7669,4.49004,230.0,0.3,3.8,0.76
,4.54D,28.3,987.6,35.7,0.0,50.7669,4.49004,229.9,0.3,3.8,0.76
,4.54D,28.3,987.6,35.7,0.0,50.7669,4.49004,230.0,0.3,3.8,0.76
,4.54D,28.3,987.6,35.7,0.0,50.7669,4.49004,229.8,0.3,3.8,0.76
,4.54D,28.3,987.6,35.7,0.0,50.7669,4.49004,230.0,0.2,3.8,0.76
,4.54D,28.3,987.6,35.7,0.01,50.7669,4.49004,229.9,0.3,3.8,0.76
,4.54D,28.3,987.6,35.7,0.01,50.7669,4.49004,230.1,0.2,3.8,0.76
,4.54D,28.3,987.6,35.7,0.0,50.7669,4.49004,229.9,0.3,3.8,0.76
,4.54D,28.3,987.7,35.7,0.0,50.7669,4.49004,229.7,0.2,3.8,0.76
,4.54D,28.3,987.6,35.7,0.01,50.7669,4.49004,229.5,0.2,3.8,0.76
,4.54D,28.3,987.6,35.7,0.0,50.7669,4.49004,229.9,0.2,3.8,0.76
,4.54D,28.3,987.7,35.7,0.0,50.7669,4.49004,229.8,0.3,3.8,0.76
,4.54D,28.8,987.7,6553.5,0.01,50.7669,4.49004,229.7,0.3,3.8,0.76
,4.54D,0.5,987.6,6553.5,0.01,50.7669,4.49004,229.8,0.3,3.8,0.76
,4.1D,28.3,987.6,35.7,0.0,50.7669,4.49004,230.0,0.2,3.8,0.76
,4.54D,28.3,987.7,35.7,0.0,50.7669,4.49004,229.7,0.2,3.8,0.76
,4.54D,28.3,987.6,35.7,0.0,50.7669,4.49004,229.9,0.3,3.8,0.76
,4.54D,28.3,987.7,35.7,0.01,50.7669,4.49004,229.4,0.2,3.8,0.76
,4.54D,28.3,987.7,35.6,0.0,50.7669,4.49004,229.9,0.2,3.8,0.76
,4.54D,28.3,987.6,35.6,0.0,50.7669,4.49004,229.6,0.2,3.8,0.76
,4.54D,28.3,987.6,35.6,0.0,50.7669,4.49004,229.7,0.3,3.8,0.76
,4.54D,28.3,987.7,35.6,0.0,50.7669,4.49004,229.8,0.3,3.8,0.76
,4.54D,28.2,987.6,35.6,0.0,50.7669,4.49004,229.8,0.2,3.8,0.76
,4.54D,28.2,987.6,35.6,0.0,50.7669,4.49004,229.8,0.3,3.8,0.76
,4.54D,28.3,987.6,35.6,0.0,50.7669,4.49004,230.1,0.3,3.8,0.76
,4.54D,28.3,987.6,35.6,0.0,50.7669,4.49004,229.8,0.3,3.8,0.76
,4.54D,28.3,987.6,35.6,0.0,50.7669,4.49004,229.8,0.2,3.8,0.76
,4.54D,28.3,987.7,35.6,0.0,50.7669,4.49004,229.6,0.3,3.8,0.76
,4.54D,28.3,987.6,35.6,0.01,50.7669,4.49004,229.8,0.3,3.8,0.76
,4.54D,28.3,987.6,35.6,0.0,50.7669,4.49004,229.9,0.2,3.8,0.76
,4.54D,28.3,987.6,35.6,0.0,50.7669,4.49004,229.6,0.2,3.8,0.76
,4.54D,28.3,987.6,35.6,0.0,50.7669,4.49004,229.9,0.3,3.8,0.76
,4.54D,28.3,987.6,35.6,0.0,50.7669,4.49004,230.0,0.3,3.8,0.76
,4.54D,28.3,987.6,35.6,0.0,50.7669,4.49004,229.6,0.3,3.8,0.76
,4.54D,28.3,987.6,35.6,0.0,50.7669,4.49004,230.0,0.2,3.8,0.76
,4.54D,28.3,987.6,35.6,0.0,50.7669,4.49004,230.0,0.2,3.8,0.76
,4.54D,28.2,987.6,35.5,0.01,50.7669,4.49004,229.9,0.3,3.8,0.76
,4.54D,28.2,987.6,35.5,0.0,50.7669,4.49004,229.9,0.2,3.8,0.76
,4.54D,28.2,987.6,35.6,0.0,50.7669,4.49004,229.7,0.3,3.8,0.76
,4.54D,28.2,987.7,35.6,0.0,50.7669,4.49004,229.9,0.3,3.8,0.76
,4.54D,28.3,987.7,35.6,0.01,50.7669,4.49004,229.8,0.3,3.8,0.76
,4.54D,28.3,987.6,35.6,0.01,50.7669,4.49004,229.7,0.2,3.8,0.76
,4.54D,28.3,987.6,35.6,0.0,50.7669,4.49004,229.7,0.3,3.7,0.76
,4.54D,28.3,987.7,35.6,0.0,50.7669,4.49004,229.6,0.3,3.8,0.76
,4.54D,28.2,987.6,35.5,0.0,50.7669,4.49004,229.7,0.3,3.8,0.76
,4.54D,28.2,987.6,35.5,0.0,50.7669,4.49004,229.8,0.3,3.8,0.76
,4.54D,28.3,987.6,35.6,0.0,50.7669,4.49004,229.9,0.2,3.8,0.76
,4.54D,28.3,987.7,35.6,0.0,50.7669,4.49004,230.1,0.3,3.8,0.76
,4.54D,28.2,987.6,35.5,0.0,50.7669,4.49004,229.8,0.2,3.8,0.76
,4.54D,28.2,987.6,35.5,0.0,50.7669,4.49004,229.9,0.2,3.8,0.76
,4.54D,28.3,987.6,35.6,0.0,50.7669,4.49004,229.8,0.3,3.8,0.76
,4.54D,28.3,987.7,35.6,0.01,50.7669,4.49004,229.5,0.2,3.8,0.76
,4.54D,28.3,987.7,35.6,0.0,50.7669,4.49004,229.7,0.3,3.8,0.76
,4.54D,28.3,987.6,35.6,0.0,50.7669,4.49004,229.8,0.2,3.8,0.76
,4.54D,28.3,987.7,35.6,0.0,50.7669,4.49004,229.6,0.3,3.8,0.76
,4.54D,28.3,987.6,35.6,0.01,50.7669,4.49004,229.8,0.2,3.8,0.76
,4.54D,28.3,987.6,35.5,0.0,50.7669,4.49004,229.8,0.3,3.8,0.76
,4.54D,28.3,987.6,35.5,0.0,50.7669,4.49004,229.8,0.3,3.8,0.76
,4.54D,28.2,987.6,35.5,0.0,50.7669,4.49004,229.8,0.2,3.8,0.76
,4.54D,28.2,987.6,35.5,0.01,50.7669,4.49004,229.9,0.3,3.8,0.76
,4.54D,28.2,987.6,35.5,0.0,50.7669,4.49004,229.8,0.2,3.8,0.76
,4.54D,28.2,987.6,35.5,0.0,50.7669,4.49004,229.7,0.3,3.8,0.76
,4.54D,28.3,987.6,35.6,0.01,50.7669,4.49004,229.9,0.3,3.8,0.76
,4.54D,28.3,987.6,35.6,0.0,50.7669,4.49004,230.1,0.2,3.8,0.76
,4.54D,28.3,987.6,35.6,0.0,50.7669,4.49004,229.7,0.2,3.8,0.76
,4.54D,28.3,987.6,35.6,0.01,50.7669,4.49004,229.7,0.2,3.8,0.76
,4.54D,28.2,987.6,35.5,0.0,50.7669,4.49004,229.8,0.2,3.8,0.76
,4.54D,28.2,987.6,35.5,0.0,50.7669,4.49004,229.8,0.3,3.8,0.76
,4.54D,28.2,987.6,35.5,0.0,50.7669,4.49004,229.7,0.3,3.8,0.76
,4.54D,28.2,987.7,35.5,0.01,50.7669,4.49004,229.6,0.2,3.8,0.76
,4.54D,28.2,987.6,35.5,0.0,50.7669,4.49004,229.8,0.3,3.8,0.76
,4.54D,28.2,987.6,35.5,0.0,50.7669,4.49004,230.1,0.3,3.8,0.76
,4.54D,28.2,987.6,35.5,0.01,50.7669,4.49004,229.8,0.3,3.8,0.76
,4.54D,28.2,987.6,35.5,0.0,50.7669,4.49004,230.0,0.2,3.8,0.76
,4.54D,28.2,987.6,35.5,0.0,50.7669,4.49004,229.9,0.3,3.8,0.76
,4.54D,28.2,987.6,35.5,0.01,50.7669,4.49004,230.0,0.3,3.8,0.76
,4.54D,28.2,987.6,35.5,0.0,50.7669,4.49004,229.9,0.2,3.8,0.76
,4.54D,28.2,987.6,35.5,0.0,50.7669,4.49004,230.0,0.3,3.8,0.76
,4.54D,28.2,987.6,35.5,0.01,50.7669,4.49004,230.2,0.3,3.8,0.76
,4.54D,28.2,987.6,35.5,0.01,50.7669,4.49018,59.7,0.2,3.8,0.76
,4.54D,28.2,987.6,35.5,0.0,50.7669,4.49018,59.7,0.2,3.8,0.76
,4.54D,28.2,987.6,35.5,0.01,50.7669,4.49018,59.7,0.3,3.8,0.76
,4.54D,28.2,987.6,35.5,0.0,50.767,4.49016,59.7,0.1,3.8,0.34
,4.54D,28.2,987.7,35.5,0.0,50.767,4.49016,59.7,0.1,3.8,0.34
D,28.2,987.6,35.6,0.0,50.767,4.49016,59.7,0.1,3.8,0.34
D,28.2,987.7,35.6,0.0,50.767,4.49016,59.7,0.2,3.8,0.34
D,28.2,987.6,35.6,0.01,50.767,4.49016,59.7,0.2,3.8,0.34
D,28.2,987.6,35.6,0.0,50.767,4.49016,59.7,0.2,3.8,0.34
,4.54D,28.2,987.7,35.5,0.0,50.767,4.49016,59.7,0.1,3.8,0.34
D,28.2,987.7,35.5,0.0,50.767,4.49016,59.7,0.2,3.8,0.34
D,28.2,987.7,35.5,0.0,50.767,4.49016,59.7,0.2,3.8,0.34
D,28.2,987.7,35.5,0.0,50.767,4.49016,59.7,0.2,3.8,0.34
D,28.2,987.7,35.5,0.0,50.767,4.49016,59.7,0.2,3.8,0.34
,4.54D,28.2,987.7,35.5,0.0,50.767,4.49016,59.7,0.2,3.8,0.34
D,28.2,987.7,35.6,0.0,50.767,4.49016,59.7,0.2,3.8,0.34
D,28.2,987.7,35.6,0.0,50.767,4.49016,59.7,0.2,3.8,0.34
D,28.2,987.7,35.6,0.0,50.767,4.49016,59.7,0.2,3.8,0.34
D,28.2,987.7,35.6,0.01,50.767,4.49016,59.7,0.1,3.8,0.34
D,28.2,987.7,35.6,0.0,50.767,4.49016,59.7,0.2,3.8,0.34
,4.54D,28.2,987.7,35.6,0.0,50.767,4.49016,59.7,0.2,3.8,0.34
D,28.2,987.7,35.6,0.0,50.767,4.49016,59.7,0.2,3.8,0.34
D,28.2,987.7,35.6,0.0,50.767,4.49016,59.7,0.2,3.8,0.34
D,28.2,987.7,35.6,0.01,50.767,4.49016,59.7,0.1,3.8,0.34
D,28.2,987.6,35.6,0.0,50.767,4.49016,59.7,0.2,3.8,0.34
D,28.2,987.6,35.6,0.0,50.767,4.49016,59.7,0.1,3.8,0.34
D,28.2,987.6,35.6,0.0,50.767,4.49016,59.7,0.2,3.8,0.34
,4.54D,28.2,987.7,35.6,0.01,50.767,4.49016,59.7,0.2,3.8,0.34
D,28.2,987.7,35.6,0.0,50.767,4.49016,59.7,0.1,3.8,0.34
D,28.2,987.7,35.6,0.0,50.767,4.49016,59.7,0.2,3.8,0.34
D,28.2,987.7,35.6,0.0,50.767,4.49016,59.7,0.2,3.8,0.34
D,28.2,987.6,35.6,0.0,50.767,4.49016,59.7,0.2,3.8,0.34
D,28.2,987.7,35.6,0.0,50.767,4.49016,59.7,0.1,3.8,0.34
D,28.2,987.7,35.5,0.01,50.767,4.49016,59.7,0.1,3.8,0.34
,4.54D,28.2,987.7,35.5,0.0,50.767,4.49016,59.7,0.1,3.8,0.34
D,28.2,987.7,35.6,0.0,50.767,4.49016,59.7,0.1,3.8,0.34
D,28.2,987.7,35.6,0.0,50.767,4.49016,59.7,0.2,3.8,0.34
D,28.2,987.7,35.6,0.0,50.767,4.49016,59.7,0.2,3.8,0.34
D,28.2,987.7,35.6,0.01,50.767,4.49016,59.7,0.2,3.8,0.34
,4.54D,28.2,987.6,35.6,0.01,50.767,4.49016,59.7,0.1,3.8,0.34
,4.54D,28.2,987.6,35.6,0.0,50.767,4.49016,59.7,0.1,3.8,0.34
,4.54D,28.2,987.7,35.6,0.0,50.767,4.49016,59.7,0.2,3.8,0.34
,4.54D,28.2,987.6,35.6,0.0,50.767,4.49016,59.7,0.2,3.8,0.34
,4.54D,28.2,987.6,35.6,0.0,50.767,4.49016,59.7,0.2,3.8,0.34
,4.54D,28.2,987.6,35.6,0.0,50.767,4.49016,59.7,0.1,3.8,0.34
,4.54D,28.2,987.6,35.6,0.0,50.767,4.49016,59.7,0.1,3.8,0.34
,4.54D,28.2,987.7,35.6,0.01,50.767,4.49016,59.7,0.2,3.8,0.34
,4.54D,28.2,987.6,35.6,0.0,50.767,4.49016,59.7,0.1,3.8,0.34
,4.54D,28.2,987.7,35.6,0.01,50.767,4.49016,59.7,0.2,3.8,0.34
,4.54D,28.2,987.6,35.6,0.0,50.767,4.49016,59.7,0.2,3.8,0.34
,4.54D,28.2,987.7,35.6,0.0,50.767,4.49016,59.7,0.2,3.8,0.34
,4.54D,28.2,987.7,35.6,0.01,50.767,4.49016,59.7,0.2,3.8,0.34
,4.54D,28.2,987.7,35.6,0.0,50.767,4.49016,59.7,0.2,3.8,0.34
,4.54D,23.7,990.3,48.0,0.0,None,None,207.4,2.0,3.8,None
,4.65D,23.7,990.2,47.9,0.01,None,None,207.9,2.0,3.8,None
D,23.7,990.2,47.9,0.01,None,None,207.5,2.0,3.8,None
D,23.7,990.3,47.9,0.0,None,None,207.3,2.0,3.8,None
D,23.7,990.3,47.9,0.0,None,None,207.5,2.0,3.8,None
,4.64D,23.7,990.3,47.9,0.0,None,None,207.5,2.0,3.8,None
,4.65D,23.7,990.3,47.9,0.0,None,None,207.4,2.0,3.8,None
,4.65D,23.7,990.3,47.9,0.01,None,None,207.5,2.0,3.8,None
,4.64D,23.7,990.3,47.9,0.0,None,None,207.5,2.0,3.8,None
,4.65D,23.7,990.3,47.9,0.0,None,None,207.5,2.0,3.8,None
,4.65D,23.7,990.3,47.9,0.01,None,None,207.5,2.0,3.8,None
,4.64D,23.7,990.3,47.9,0.0,None,None,207.6,2.0,3.8,None
,4.65D,23.7,990.2,47.8,0.0,None,None,207.7,2.0,3.8,None
,4.65D,23.7,990.3,47.8,0.0,None,None,207.5,2.0,3.8,None
,4.65D,23.7,990.3,47.8,0.0,None,None,207.5,2.0,3.8,None
,4.65D,23.7,990.3,47.8,0.0,None,None,207.7,2.0,3.6,None
,4.65D,23.7,990.2,47.8,0.0,None,None,207.5,2.0,3.8,None
,4.65D,23.7,990.3,47.8,0.0,None,None,207.3,2.0,3.8,None
,4.65D,23.7,990.3,47.8,0.0,None,None,207.3,2.0,3.8,None
,4.65D,23.7,990.3,47.8,0.0,None,None,207.2,2.0,3.8,None
,4.65D,23.7,990.3,47.8,0.01,None,None,207.2,2.0,3.8,None
,4.64D,23.7,990.3,47.8,0.0,None,None,207.1,2.1,3.8,None
,4.65D,23.7,990.3,47.8,0.0,None,None,207.2,2.0,3.8,None
,4.65D,23.7,990.3,47.8,0.0,None,None,207.3,2.1,3.8,None
,4.65D,23.7,990.3,47.8,0.0,None,None,207.2,2.1,3.7,None
,4.65D,23.7,990.3,47.8,0.0,None,None,207.2,2.1,3.8,None
,4.65D,23.7,990.3,47.8,0.0,None,None,207.3,2.1,3.8,None
,4.65D,23.7,990.3,47.8,0.0,None,None,207.2,2.1,3.8,None
,4.65D,23.7,990.3,47.8,0.01,None,None,207.3,2.1,3.8,None
,4.64D,23.7,990.3,47.8,0.0,None,None,207.1,2.1,3.6,None
,4.65D,23.7,990.3,47.8,0.0,None,None,207.3,2.1,3.8,None
,4.65D,23.7,990.3,47.8,0.0,None,None,207.1,2.1,3.8,None
,4.65D,23.7,990.3,47.8,0.0,None,None,207.2,2.1,3.8,None
,4.65D,23.7,990.3,47.8,0.0,None,None,207.3,2.1,3.8,None
,4.65D,23.7,990.3,47.8,0.0,None,None,207.4,2.1,3.8,None
,4.65D,23.7,990.3,47.8,0.01,None,None,207.2,2.1,3.8,None
,4.64D,23.7,990.3,47.8,0.0,None,None,207.2,2.1,3.8,None
,4.65D,23.7,990.3,47.8,0.0,None,None,207.0,2.1,3.8,None
,4.65D,23.7,990.3,47.7,0.0,None,None,207.1,2.1,3.8,None
,4.65D,23.7,990.3,47.7,0.01,None,None,206.9,2.1,3.8,None
,4.64D,23.7,990.3,47.7,0.0,None,None,207.2,2.1,3.8,None
,4.65D,23.7,990.3,47.7,0.0,None,None,207.0,2.1,3.6,None
,4.65D,23.7,990.3,47.8,0.0,None,None,207.0,2.1,3.8,None
,4.65D,23.7,990.3,47.8,0.0,None,None,207.2,2.1,3.8,None
,4.65D,23.7,990.3,47.7,0.0,None,None,207.1,2.1,3.8,None
,4.65D,23.7,990.3,47.7,0.0,None,None,207.2,2.1,3.8,None
,4.65D,23.7,990.3,47.7,0.0,None,None,207.3,2.1,3.8,None
,4.65D,23.7,990.3,47.7,0.01,None,None,207.3,2.1,3.8,None
,4.64D,23.7,990.3,47.7,0.0,None,None,207.5,2.1,3.8,None
,4.65D,23.7,990.3,47.7,0.0,None,None,207.3,2.1,3.8,None
,4.65D,23.7,990.3,47.7,0.01,None,None,207.7,2.1,3.8,None
,4.64D,23.7,990.3,47.7,0.0,None,None,207.3,2.1,3.8,None
,4.65D,23.8,990.3,47.7,0.0,None,None,207.7,2.1,3.8,None
,4.65D,23.7,990.3,47.7,0.0,None,None,207.6,2.1,3.8,None
,4.65D,23.8,990.3,47.7,0.01,None,None,207.7,2.1,3.8,None
,4.64D,23.8,990.2,47.7,0.0,None,None,207.7,2.1,3.8,None
,4.65D,23.8,990.2,47.7,0.01,None,None,207.6,2.1,3.8,None
,4.64D,23.8,990.2,47.7,0.0,None,None,207.7,2.1,3.8,None
,4.65D,23.8,990.3,47.7,0.0,None,None,207.6,2.1,3.8,None
,4.65D,23.8,990.3,47.7,0.0,None,None,207.5,2.1,3.8,None
,4.65D,23.8,990.2,47.7,0.0,None,None,207.9,2.1,3.8,None
,4.65D,23.8,990.3,47.7,0.0,None,None,207.6,2.1,3.8,None
,4.65D,23.8,990.2,47.7,0.0,None,None,207.7,2.1,3.8,None
,4.65D,23.8,990.3,47.7,0.0,None,None,207.5,2.1,3.8,None
,4.65D,23.8,990.2,47.7,0.0,None,None,207.9,2.1,3.8,None
,4.65D,23.8,990.3,47.7,0.01,None,None,207.6,2.1,3.8,None
,4.64D,23.8,990.2,47.7,0.0,None,None,207.6,2.1,3.8,None
,4.65D,23.8,990.3,47.7,0.0,None,None,207.8,2.1,3.8,None
,4.65D,23.8,990.2,47.7,0.01,None,None,207.7,2.1,3.8,None
,4.64D,23.8,990.3,47.7,0.0,None,None,207.5,2.1,3.8,None
,4.65D,23.8,990.3,47.7,0.01,None,None,207.4,2.1,3.8,None
,4.64D,23.8,990.3,47.7,0.0,None,None,207.4,2.1,3.8,None
,4.65D,23.8,990.3,47.7,0.0,None,None,207.4,2.1,3.8,None
,4.65D,23.8,990.3,47.7,0.0,None,None,207.3,2.1,3.8,None
,4.65D,23.8,990.3,47.7,0.0,None,None,207.5,2.1,3.8,None
,4.65D,23.8,990.3,47.7,0.0,None,None,207.6,2.1,3.8,None
,4.65D,23.8,990.2,47.8,0.0,None,None,207.6,2.1,3.8,None
,4.65D,23.8,990.3,47.8,0.0,None,None,207.6,2.1,3.8,None
,4.65D,23.8,990.2,47.7,0.01,None,None,207.6,2.1,3.8,None
,4.64D,23.8,990.3,47.7,0.0,None,None,207.7,2.1,3.8,None
,4.65D,23.8,990.3,47.7,0.01,None,None,207.5,2.1,3.8,None
,4.64D,23.8,990.3,47.7,0.0,None,None,207.6,2.1,3.8,None
,4.65D,23.8,990.2,47.7,0.0,None,None,207.6,2.1,3.8,None
,4.65D,23.8,990.3,47.7,0.0,None,None,207.6,2.1,3.8,None
,4.65D,23.8,990.3,47.8,0.0,None,None,207.6,2.1,3.8,None
,4.65D,23.8,990.3,47.8,0.0,None,None,207.6,2.1,3.8,None
,4.65D,23.8,990.2,47.8,0.0,None,None,207.7,2.1,3.8,None
,4.65D,23.8,990.3,47.8,0.01,None,None,207.5,2.1,3.8,None
,4.64D,23.8,990.3,47.8,0.01,None,None,207.5,2.1,3.8,None
,4.64D,23.8,990.3,47.8,0.0,None,None,207.3,2.1,3.8,None
,4.65D,23.8,990.3,47.8,0.0,None,None,207.6,2.1,3.8,None
,4.65D,23.8,990.3,47.8,0.0,None,None,207.8,2.1,3.8,None
,4.65D,23.8,990.3,47.7,0.0,None,None,207.7,2.1,3.8,None
,4.65D,23.8,990.3,47.7,0.0,None,None,207.5,2.1,3.8,None
,4.65D,23.8,990.2,47.7,0.0,None,None,207.5,2.1,3.8,None
,4.65