4.49013,50.7669,49.3
4.49013,50.7669,49.3
4.49013,50.7669,49.3
4.49013,50.7669,49.3
4.49013,50.7669,49.3
4.49013,50.7669,49.3
4.49013,50.7669,49.3
4.49013,50.7669,49.3
4.49013,50.7669,49.3
4.49013,50.7669,49.3
4.49013,50.7669,49.3
4.49013,50.7669,49.3
4.49013,50.7669,49.3
4.49013,50.7669,49.3
4.49013,50.7669,49.3
4.49013,50.7669,49.3
4.49013,50.7669,49.3
4.49013,50.7669,49.3
4.49013,50.7669,49.3
4.49013,50.7669,49.3
4.49013,50.7669,49.3
4.49013,50.7669,49.3
4.49013,50.7669,49.3
4.49013,50.7669,49.3
4.49013,50.7669,49.3
4.49013,50.7669,49.3
4.49013,50.7669,49.3
4.49013,50.7669,49.3
4.49013,50.7669,49.3
4.49013,50.7669,49.3
4.49013,50.7669,49.3
4.49013,50.7669,49.3
4.49013,50.7669,49.3
4.49013,50.7669,49.3
4.49013,50.7669,49.3
4.49013,50.7669,49.3
4.49013,50.7669,49.3
4.49013,50.7669,49.3
4.49013,50.7669,49.3
4.49013,50.7669,49.3
4.49013,50.7669,49.3
4.49013,50.7669,49.3
4.49013,50.7669,49.3
4.49013,50.7669,49.3
4.49013,50.7669,49.3
4.49013,50.7669,49.3
4.49013,50.7669,49.3
4.49013,50.7669,49.3
4.49013,50.7669,49.3
4.49013,50.7669,49.3
4.49013,50.7669,49.3
4.49013,50.7669,49.3
4.49013,50.7669,49.3
4.49013,50.7669,49.3
4.49013,50.7669,49.3
4.49013,50.7669,49.3
4.49013,50.7669,49.3
4.49013,50.7669,49.3
4.49013,50.7669,49.3
4.49013,50.7669,49.3
4.49013,50.7669,49.3
4.49013,50.7669,49.3
4.49013,50.7669,49.3
4.49013,50.7669,49.3
4.49013,50.7669,49.3
4.49013,50.7669,49.3
4.49013,50.7669,49.3
4.49013,50.7669,49.3
4.49013,50.7669,49.3
4.49013,50.7669,49.3
4.49013,50.7669,49.3
4.49013,50.7669,49.3
4.49013,50.7669,49.3
4.49013,50.7669,49.3
4.49013,50.7669,49.3
4.49013,50.7669,49.3
4.49012,50.766965.9
4.49012,50.766965.9
4.49012,50.766965.9
4.49012,50.766965.9
4.49012,50.766965.9
4.49012,50.766965.9
4.49012,50.766965.9
4.49012,50.766965.9
4.49012,50.766965.9
4.49012,50.766965.9
4.49012,50.766965.9
4.49012,50.766965.9
4.49012,50.766965.9
4.49012,50.766965.9
4.49012,50.766965.9
4.49012,50.766965.9
4.49012,50.7669,65.9
4.49012,50.7669,65.9
4.49012,50.7669,65.9
4.49012,50.7669,65.9
4.49012,50.7669,65.9
4.49012,50.7669,65.9
4.49011,50.7671,80.5
4.49011,50.7671,80.5
4.49011,50.7671,80.5
4.49011,50.7671,80.5
4.49011,50.7671,80.5
4.49011,50.7671,80.5
4.49011,50.7671,80.5
4.49011,50.7671,80.5
4.49011,50.7671,80.5
4.49011,50.7671,80.5
4.49011,50.7671,80.5
4.49011,50.7671,80.5
4.49011,50.767,80.8
4.49011,50.767,80.8
4.49011,50.767,80.8
4.49011,50.767,80.8
4.49011,50.767,80.8
4.49011,50.767,80.8
4.49011,50.767,80.8
4.49011,50.767,80.8
4.49011,50.767,80.8
4.49011,50.767,80.8
4.49011,50.767,80.8
4.49011,50.767,80.8
4.49011,50.767,80.8
4.49011,50.767,80.8
4.49011,50.767,80.8
4.49011,50.767,80.8
4.49011,50.767,80.8
4.49011,50.767,80.8
4.49011,50.767,80.8
4.49011,50.767,80.8
4.49011,50.767,80.8
4.49011,50.767,80.8
4.49011,50.767,80.8
4.49011,50.767,80.8
4.49011,50.767,80.8
4.49011,50.767,80.8
4.49011,50.767,80.8
4.49011,50.767,80.8
4.49011,50.767,80.8
4.49011,50.767,80.8
4.49011,50.767,80.8
4.49011,50.767,80.8
4.49011,50.767,80.8
4.49011,50.767,80.8
4.49011,50.767,80.8
4.49011,50.767,80.8
4.49011,50.767,80.8
4.49011,50.767,80.8
4.49011,50.767,80.8
4.49011,50.767,80.8
4.49011,50.767,80.8
4.49011,50.767,80.8
4.49011,50.767,80.8
4.49011,50.767,80.8
4.49011,50.767,80.8
4.49011,50.767,80.8
4.49011,50.767,80.8
4.49011,50.767,80.8
4.49011,50.767,80.8
4.49011,50.767,80.8
4.49011,50.767,80.8
4.49011,50.767,80.8
4.49011,50.767,80.8
4.49011,50.767,80.8
4.49011,50.767,80.8
4.49011,50.767,80.8
4.49011,50.767,80.8
4.49011,50.767,80.8
4.49011,50.767,80.8
4.49011,50.767,80.8
4.49011,50.767,80.8
4.49011,50.767,80.8
4.49011,50.767,80.8
4.49011,50.767,80.8
4.49011,50.767,80.8
4.49011,50.767,80.8
4.49011,50.767,80.8
4.49011,50.767,80.8
4.49011,50.767,80.8
4.49011,50.767,80.8
4.49011,50.767,80.8
4.49011,50.767,80.8
4.49011,50.767,80.8
4.49011,50.767,80.8
4.49011,50.767,80.8
4.49011,50.767,80.8
4.49011,50.767,80.8
4.49011,50.767,80.8
4.49011,50.767,80.8
4.49011,50.767,80.8
4.49011,50.767,80.8
4.49011,50.767,80.8
4.49011,50.767,80.8
4.49011,50.767,80.8
4.49011,50.767,80.8
4.49011,50.767,80.8
4.49011,50.767,80.8
4.49011,50.767,80.8
4.49011,50.767,80.8
4.49011,50.767,80.8
4.49011,50.767,80.8
4.49011,50.767,80.8
4.49011,50.767,80.8
4.49011,50.767,80.8
4.49011,50.767,80.8
4.49011,50.767,80.8
4.48999,50.7669,16.6
4.48999,50.7669,16.9
4.48999,50.7669,16.8
4.48999,50.7669,16.8
4.48999,50.7669,16.9
4.48999,50.7669,16.9
4.48999,50.7669,16.7
4.48999,50.7669,17.1
4.48999,50.7669,16.7
4.48999,50.7669,16.8
4.48999,50.7669,16.6
4.48999,50.7669,16.8
4.48999,50.7669,17.1
4.48999,50.7669,16.8
4.48999,50.7669,16.6
4.48999,50.7669,17.0
4.48999,50.7669,16.9
4.48999,50.7669,17.1
4.48999,50.7669,16.9
4.48999,50.7669,17.0
4.48999,50.7669,16.9
4.48999,50.7669,17.0
4.48999,50.7669,16.6
4.48999,50.7669,17.1
4.48999,50.7669,17.3
4.48999,50.7669,17.0
4.48999,50.7669,16.8
4.48999,50.7669,17.2
4.48999,50.7669,16.8
4.48999,50.7669,16.9
4.48999,50.7669,16.8
4.48999,50.7669,17.0
4.48999,50.7669,17.1
4.48999,50.7669,16.8
4.48999,50.7669,16.8
4.48999,50.7669,17.0
4.48999,50.7669,17.2
4.48999,50.7669,17.1
4.48999,50.7669,16.6
4.48999,50.7669,16.9
4.48999,50.7669,17.0
4.48999,50.7669,17.0
4.48999,50.7669,16.8
4.48999,50.7669,17.0
4.48999,50.7669,16.9
4.48999,50.7669,17.4
4.48999,50.7669,17.1
4.48999,50.7669,17.0
4.48999,50.7669,16.8
4.48999,50.7669,17.0
4.48999,50.7669,17.0
4.48999,50.7669,17.2
4.48999,50.7669,16.7
4.48999,50.7669,17.1
4.48999,50.7669,16.9
4.48999,50.7669,17.1
4.48999,50.7669,16.9
4.48999,50.7669,16.9
4.48999,50.7669,16.8
4.48999,50.7669,17.1
4.48999,50.7669,16.8
4.48999,50.7669,17.1
4.48999,50.7669,16.9
4.48999,50.7669,17.1
4.48999,50.7669,16.8
4.48999,50.7669,17.0
4.48999,50.7669,16.7
4.48999,50.7669,16.9
4.48999,50.7669,16.7
4.48999,50.7669,16.8
4.48999,50.7669,16.8
4.48999,50.7669,17.0
4.48999,50.7669,16.7
4.48999,50.7669,16.7
4.48999,50.7669,16.9
4.48999,50.7669,16.9
4.48999,50.7669,16.6
4.48999,50.7669,16.9
4.48999,50.7669,16.7
4.48999,50.7669,16.5
4.48999,50.7669,16.8
4.48999,50.7669,16.5
4.48999,50.7669,16.6
4.48999,50.7669,16.9
4.48999,50.7669,17.0
4.48999,50.7669,16.9
4.48999,50.7669,17.1
4.48999,50.7669,17.0
4.48999,50.7669,17.1
4.48999,50.7669,17.0
4.48999,50.7669,17.1
4.48999,50.7669,16.8
4.48999,50.7669,17.0
4.48999,50.7669,16.8
4.48999,50.7669,17.1
4.48999,50.7669,16.6
4.48999,50.7669,16.9
4.48999,50.7669,16.8
4.48999,50.7669,16.9
4.48999,50.7669,16.9
4.48999,50.7669,17.0
4.48999,50.7669,16.7
4.48999,50.7669,16.9
4.48999,50.7669,17.0
4.48999,50.7669,17.0
4.48999,50.7669,16.7
4.48999,50.7669,16.8
4.48999,50.7669,16.8
4.48999,50.7669,16.9
4.48999,50.7669,16.6
4.48999,50.7669,16.9
4.48999,50.7669,16.8
4.48999,50.7669,16.8
4.48999,50.7669,16.8
4.48999,50.7669,16.7
4.48999,50.7669,16.6
4.48999,50.7669,17.0
4.48999,50.7669,16.6
4.48999,50.7669,16.6
4.48999,50.7669,16.6
4.48999,50.7669,16.6
4.48999,50.7669,16.6
4.48999,50.7669,17.0
4.48999,50.7669,16.8
4.48999,50.7669,16.8
4.48999,50.7669,16.7
4.48999,50.7669,16.8
4.48999,50.7669,16.8
4.48999,50.7669,17.0
4.48999,50.7669,16.9
4.48999,50.7669,16.7
4.48999,50.7669,17.0
4.48999,50.7669,16.9
4.48999,50.7669,16.8
4.48999,50.7669,16.8
4.48999,50.7669,16.9
4.48999,50.7669,16.6
4.48999,50.7669,16.8
4.48999,50.7669,17.2
4.48999,50.7669,16.8
4.48999,50.7669,16.9
4.48999,50.7669,16.7
4.48999,50.7669,17.0
4.48999,50.7669,17.0
4.48999,50.7669,16.9
4.48999,50.7669,16.7
4.48999,50.7669,17.1
4.48999,50.7669,16.9
4.48999,50.7669,16.9
4.48999,50.7669,17.0
4.48999,50.7669,17.0
4.48999,50.7669,16.9
4.48999,50.7669,17.1
4.48999,50.7669,16.8
4.48999,50.7669,16.8
4.48999,50.7669,17.0
4.48999,50.7669,16.8
4.48999,50.7669,16.9
4.48999,50.7669,17.1
4.48999,50.7669,16.8
4.48999,50.7669,16.8
4.48999,50.7669,17.0
4.48999,50.7669,16.9
4.48999,50.7669,16.9
4.48999,50.7669,16.9
4.48999,50.7669,16.9
4.48999,50.7669,16.6
4.48999,50.7669,16.9
4.48999,50.7669,17.0
4.48999,50.7669,16.7
4.48999,50.7669,17.0
4.48999,50.7669,16.7
4.48999,50.7669,16.7
4.48999,50.7669,16.7
4.48999,50.7669,16.9
4.48999,50.7669,16.9
4.48999,50.7669,16.7
4.48999,50.7669,16.6
4.48999,50.7669,16.9
4.48999,50.7669,17.0
4.48999,50.7669,17.0
4.48999,50.7669,17.1
4.48999,50.7669,16.9
4.48999,50.7669,17.0
4.48999,50.7669,16.9
4.48999,50.7669,16.8
4.48999,50.7669,17.1
4.48999,50.7669,16.8
4.48999,50.7669,16.9
4.48999,50.7669,16.7
4.48999,50.7669,17.1
4.48999,50.7669,16.9
4.48999,50.7669,16.7
4.48999,50.7669,16.6
4.48999,50.7669,16.6
4.48999,50.7669,16.6
4.48999,50.7669,16.7
4.48999,50.7669,16.7
4.48999,50.7669,17.0
4.48999,50.7669,16.6
4.48999,50.7669,16.7
4.48999,50.7669,16.9
4.48999,50.7669,16.8
4.48999,50.7669,16.9
4.48999,50.7669,16.8
4.48999,50.7669,16.7
4.48999,50.7669,16.9
4.48999,50.7669,16.8
4.48999,50.7669,17.1
4.48999,50.7669,16.8
4.48999,50.7669,16.8
4.48999,50.7669,16.5
4.48999,50.7669,16.6
4.48999,50.7669,16.7
4.48999,50.7669,17.0
4.48999,50.7669,17.0
4.48999,50.7669,16.8
4.48999,50.7669,16.9
4.48999,50.7669,16.9
4.48999,50.7669,16.8
4.48999,50.7669,17.1
4.48999,50.7669,16.9
4.48999,50.7669,17.0
4.48999,50.7669,17.2
4.48999,50.7669,17.0
4.48999,50.7669,16.8
4.48999,50.7669,16.8
4.48999,50.7669,17.0
4.48999,50.7669,16.7
4.48999,50.7669,17.1
4.48999,50.7669,16.9
4.48999,50.7669,16.9
4.48999,50.7669,16.8
4.48999,50.7669,16.9
4.48999,50.7669,16.7
4.48999,50.7669,17.1
4.48999,50.7669,17.0
4.48999,50.7669,17.0
4.48999,50.7669,17.0
4.48999,50.7669,17.1
4.48999,50.7669,17.0
4.48999,50.7669,17.0
4.48999,50.7669,17.2
4.48999,50.7669,17.1
4.48999,50.7669,16.8
4.48999,50.7669,16.8
4.48999,50.7669,17.2
4.48999,50.7669,17.0
4.48999,50.7669,17.0
4.48999,50.7669,16.9
4.48999,50.7669,17.1
4.48999,50.7669,16.9
4.48999,50.7669,16.9
4.48999,50.7669,17.0
4.48999,50.7669,17.0
4.48999,50.7669,16.9
4.48999,50.7669,16.9
4.48999,50.7669,16.8
4.48999,50.7669,16.7
4.48999,50.7669,17.0
4.48999,50.7669,16.7
4.48999,50.7669,17.0
4.48999,50.7669,17.0
4.48999,50.7669,17.1
4.48999,50.7669,16.9
4.48999,50.7669,17.0
4.48999,50.7669,17.3
4.48999,50.7669,17.0
4.48999,50.7669,16.8
4.48999,50.7669,17.0
4.48999,50.7669,16.8
4.48999,50.7669,17.2
4.48999,50.7669,16.8
4.48999,50.7669,17.0
4.48999,50.7669,17.2
4.48999,50.7669,17.0
4.48999,50.7669,17.0
4.48999,50.7669,17.0
4.48999,50.7669,16.9
4.48999,50.7669,17.0
4.48999,50.7669,17.2
4.48999,50.7669,17.2
4.48999,50.7669,17.1
4.48999,50.7669,17.4
4.48999,50.7669,17.0
4.48999,50.7669,17.1
4.48999,50.7669,17.1
4.48999,50.7669,17.4
4.48999,50.7669,17.3
4.48999,50.7669,17.2
4.48999,50.7669,16.8
4.48999,50.7669,17.0
4.48999,50.7669,17.1
4.48999,50.7669,17.5
4.48999,50.7669,17.0
4.48999,50.7669,17.1
4.48999,50.7669,17.3
4.48999,50.7669,17.2
4.48999,50.7669,17.5
4.48999,50.7669,17.5
4.48999,50.7669,17.5
4.48999,50.7669,17.3
4.48999,50.7669,17.4
4.48999,50.7669,17.2
4.48999,50.7669,17.4
4.48999,50.7669,16.9
4.48999,50.7669,17.0
4.48999,50.7669,17.1
4.48999,50.7669,17.6
4.48999,50.7669,17.2
4.49005,50.7669,74.1
4.49005,50.7669,74.1
4.49005,50.7669,74.1
4.49005,50.7669,74.1
4.49005,50.7669,74.1
4.49005,50.7669,74.1
4.49005,50.7669,74.1
4.49005,50.7669,74.1
4.49005,50.7669,74.1
4.49005,50.7669,74.1
4.49005,50.7669,74.1
4.49005,50.7669,74.1
4.49005,50.7669,74.1
4.49005,50.7669,74.1
4.49006,50.7669,72.7
4.49006,50.7669,72.7
4.49006,50.7669,72.7
4.49006,50.7669,72.7
4.49006,50.7669,72.7
4.49006,50.7669,72.7
4.49006,50.7669,72.7
4.49006,50.7669,72.7
4.49006,50.7669,72.7
4.49006,50.7669,72.7
4.49006,50.7669,72.7
4.49006,50.7669,72.7
4.49006,50.7669,72.7
4.49006,50.7669,72.7
4.49006,50.7669,72.7
4.49006,50.7669,72.7
4.49006,50.7669,72.7
4.49006,50.7669,72.7
4.49006,50.7669,72.7
4.49006,50.7669,72.7
4.49006,50.7669,72.7
4.49006,50.7669,72.7
4.49006,50.7669,72.7
4.49006,50.7669,72.7
4.49006,50.7669,72.7
4.49006,50.7669,72.7
4.49006,50.7669,72.7
4.49006,50.7669,72.7
4.49006,50.7669,72.7
4.49006,50.7669,72.7
4.49006,50.7669,72.7
4.49006,50.7669,72.7
4.49006,50.7669,72.7
4.49006,50.7669,72.7
4.49006,50.7669,72.7
4.49006,50.7669,72.7
4.49006,50.7669,72.7
4.49006,50.7669,72.7
4.49006,50.7669,72.7
4.49006,50.7669,72.7
4.49006,50.7669,72.7
4.49006,50.7669,72.7
4.49006,50.7669,72.7
4.49006,50.7669,72.7
4.49006,50.7669,72.7
4.49006,50.7669,72.7
4.49006,50.7669,72.7
4.49006,50.7669,72.7
4.49006,50.7669,72.7
4.49006,50.7669,72.7
4.49006,50.7669,72.7
4.49006,50.7669,72.7
4.49006,50.7669,72.7
4.49006,50.7669,72.7
4.49006,50.7669,72.7
4.49006,50.7669,72.7
4.49006,50.7669,72.7
4.49006,50.7669,72.7
4.49006,50.7669,72.7
4.49006,50.7669,72.7
4.49006,50.7669,72.7
4.49006,50.7669,72.7
4.49006,50.7669,72.7
4.49006,50.7669,72.7
4.49006,50.7669,72.7
4.49006,50.7669,72.7
4.49006,50.7669,72.7
4.49006,50.7669,72.7
4.49006,50.7669,72.7
4.49006,50.7669,72.7
4.49006,50.7669,72.7
4.49006,50.7669,72.7
4.49006,50.7669,72.7
4.49006,50.7669,72.7
4.49006,50.7669,72.7
4.49006,50.7669,72.7
4.49006,50.7669,72.7
4.49006,50.7669,72.7
4.49006,50.7669,72.7
4.49006,50.7669,72.7
4.49006,50.7669,72.7
4.49006,50.7669,72.7
4.49006,50.7669,72.7
4.49006,50.7669,72.7
4.49006,50.7669,72.7
4.49006,50.7669,72.7
4.49006,50.7669,72.7
4.49006,50.7669,72.7
4.49006,50.7669,72.7
4.49006,50.7669,72.7
4.49006,50.7669,72.7
4.49006,50.7669,72.7
4.49006,50.7669,72.7
4.49006,50.7669,72.7
4.49006,50.7669,72.7
4.49006,50.7669,72.7
4.49006,50.7669,72.7
4.49006,50.7669,72.7
4.49006,50.7669,72.7
4.49006,50.7669,72.7
4.49006,50.7669,72.7
4.49006,50.7669,72.7
4.49006,50.7669,72.7
4.49006,50.7669,72.7
4.49006,50.7669,72.7
4.49006,50.7669,72.7
4.49006,50.7669,72.7
4.49006,50.7669,72.7
4.49006,50.7669,72.7
4.49006,50.7669,72.7
4.49006,50.7669,72.7
4.49006,50.7669,72.7
4.49006,50.7669,72.7
4.49006,50.7669,72.7
4.49006,50.7669,72.7
4.49006,50.7669,72.7
4.49006,50.7669,72.7
4.49006,50.7669,72.7
4.49006,50.7669,72.7
4.49006,50.7669,72.7
4.49006,50.7669,72.7
4.49006,50.7669,72.7
4.49006,50.7669,72.7
4.49006,50.7669,72.7
4.49006,50.7669,72.7
4.49006,50.7669,72.7
4.49006,50.7669,72.7
4.49006,50.7669,72.7
4.49006,50.7669,72.7
4.49006,50.7669,72.7
4.49006,50.7669,72.7
4.49006,50.7669,72.7
4.49006,50.7669,72.7
4.49006,50.7669,72.7
4.49006,50.7669,72.7
4.49006,50.7669,72.7
4.49006,50.7669,72.7
4.49006,50.7669,72.7
4.49006,50.7669,72.7
4.49006,50.7669,72.7
4.49006,50.7669,72.7
4.49006,50.7669,72.7
4.49006,50.7669,72.7
4.49006,50.7669,72.7
4.49006,50.7669,72.7
4.49006,50.7669,72.7
4.49006,50.7669,72.7
4.49006,50.7669,72.7
4.49006,50.7669,72.7
4.49006,50.7669,72.7
4.49006,50.7669,72.7
4.49006,50.7669,72.7
4.49006,50.7669,72.7
4.49006,50.7669,72.7
4.49006,50.7669,72.7
4.49006,50.7669,72.7
4.49006,50.7669,72.7
4.49006,50.7669,72.7
4.49006,50.7669,72.7
4.49006,50.7669,72.7
4.49006,50.7669,72.7
4.49006,50.7669,72.7
4.49006,50.7669,72.7
4.49006,50.7669,72.7
4.49006,50.7669,72.7
4.49006,50.7669,72.7
4.49006,50.7669,72.7
4.49006,50.7669,72.7
4.49006,50.7669,72.7
4.49006,50.7669,72.7
4.49006,50.7669,72.7
4.49006,50.7669,72.7
4.49006,50.7669,72.7
4.49006,50.7669,72.7
4.49006,50.7669,72.7
4.49006,50.7669,72.7
4.49006,50.7669,72.7
4.49006,50.7669,72.7
4.49006,50.7669,72.7
4.49006,50.7669,72.7
4.49006,50.7669,72.7
4.49006,50.7669,72.7
4.49006,50.7669,72.7
4.49006,50.7669,72.7
4.49006,50.7669,72.7
4.49006,50.7669,72.7
4.49006,50.7669,72.7
4.49006,50.7669,72.7
4.49006,50.7669,72.7
4.49006,50.7669,72.7
4.49006,50.7669,72.7
4.49006,50.7669,72.7
4.49006,50.7669,72.7
4.49006,50.7669,72.7
4.49006,50.7669,72.7
4.49006,50.7669,72.7
4.49006,50.7669,72.7
4.49006,50.7669,72.7
4.49006,50.7669,72.7
4.49006,50.7669,72.7
4.49006,50.7669,72.7
4.49006,50.7669,72.7
4.49006,50.7669,72.7
4.49006,50.7669,72.7
4.49006,50.7669,72.7
4.49006,50.7669,72.7
4.49006,50.7669,72.7
4.49006,50.7669,72.7
4.49006,50.7669,72.7
4.49006,50.7669,72.7
4.49006,50.7669,72.7
4.49006,50.7669,72.7
4.49006,50.7669,72.7
4.49006,50.7669,72.7
4.49006,50.7669,72.7
4.49006,50.7669,72.7
4.49006,50.7669,72.7
4.49006,50.7669,72.7
4.49006,50.7669,72.7
4.49006,50.7669,72.7
4.49006,50.7669,72.7
4.49006,50.7669,72.7
4.49006,50.7669,72.7
4.49006,50.7669,72.7
4.49006,50.7669,72.7
4.49006,50.7669,72.7
4.49006,50.7669,72.7
4.49006,50.7669,72.7
4.49006,50.7669,72.7
4.49006,50.7669,72.7
4.49006,50.7669,72.7
4.49006,50.7669,72.7
4.49006,50.7669,72.7
4.49006,50.7669,72.7
4.49006,50.7669,72.7
4.49006,50.7669,72.7
4.49006,50.7669,72.7
4.49006,50.7669,72.7
4.49006,50.7669,72.7
4.49006,50.7669,72.7
4.49006,50.7669,72.7
4.49006,50.7669,72.7
4.49006,50.7669,72.7
4.49006,50.7669,72.7
4.49006,50.7669,72.7
4.49006,50.7669,72.7
4.49006,50.7669,72.7
4.49006,50.7669,72.7
4.49006,50.7669,72.7
4.49006,50.7669,72.7
4.49006,50.7669,72.7
4.49006,50.7669,72.7
4.49006,50.7669,72.7
4.49006,50.7669,72.7
4.49006,50.7669,72.7
4.49006,50.7669,72.7
4.49006,50.7669,72.7
4.49006,50.7669,72.7
4.49006,50.7669,72.7
4.49006,50.7669,72.7
4.49006,50.7669,72.7
4.49006,50.7669,72.7
4.49006,50.7669,72.7
4.49006,50.7669,72.7
4.49006,50.7669,72.7
4.49006,50.7669,72.7
4.49006,50.7669,72.7
4.49006,50.7669,72.7
4.49006,50.7669,72.7
4.49006,50.7669,72.7
4.49006,50.7669,72.7
4.49006,50.7669,72.7
4.49006,50.7669,72.7
4.49006,50.7669,72.7
4.49006,50.7669,72.7
4.49006,50.7669,72.7
4.49006,50.7669,72.7
4.49006,50.7669,72.7
4.49006,50.7669,72.7
4.49006,50.7669,72.7
4.49006,50.7669,72.7
4.49006,50.7669,72.7
4.49006,50.7669,72.7
4.49006,50.7669,72.7
4.49006,50.7669,72.7
4.49006,50.7669,72.7
4.49006,50.7669,72.7
4.49006,50.7669,72.7
4.49006,50.7669,72.7
4.49006,50.7669,72.7
4.49006,50.7669,72.7
4.49006,50.7669,72.7
4.49006,50.7669,72.7
4.49006,50.7669,72.7
4.49006,50.7669,72.7
4.49006,50.7669,72.7
4.49006,50.7669,72.7
4.49006,50.7669,72.7
4.49006,50.7669,72.7
4.49006,50.7669,72.7
4.49006,50.7669,72.7
4.49006,50.7669,72.7
4.49006,50.7669,72.7
4.49006,50.7669,72.7
4.49006,50.7669,72.7
4.49006,50.7669,72.7
4.49006,50.7669,72.7
4.49006,50.7669,72.7
4.49006,50.7669,72.7
4.49006,50.7669,72.7
4.49006,50.7669,72.7
4.49006,50.7669,72.7
4.49006,50.7669,72.7
4.49006,50.7669,72.7
4.49006,50.7669,72.7
4.49006,50.7669,72.7
4.49006,50.7669,72.7
4.49006,50.7669,72.7
4.49006,50.7669,72.7
4.49006,50.7669,72.7
4.49006,50.7669,72.7
4.49006,50.7669,72.7
4.49006,50.7669,72.7
4.49006,50.7669,72.7
4.49006,50.7669,72.7
4.49006,50.7669,72.7
4.49006,50.7669,72.7
4.49006,50.7669,72.7
4.49006,50.7669,72.7
4.49006,50.7669,72.7
4.49006,50.7669,72.7
4.49006,50.7669,72.7
4.49006,50.7669,72.7
4.49006,50.7669,72.7
4.49006,50.7669,72.7
4.49006,50.7669,72.7
4.49006,50.7669,72.7
4.49006,50.7669,72.7
4.49006,50.7669,72.7
4.49006,50.7669,72.7
4.49006,50.7669,72.7
4.49006,50.7669,72.7
4.49006,50.7669,72.7
4.49006,50.7669,72.7
4.49006,50.7669,72.7
4.49006,50.7669,72.7
4.49006,50.7669,72.7
4.49006,50.7669,72.7
4.49006,50.7669,72.7
4.49006,50.7669,72.7
4.49006,50.7669,72.7
4.49006,50.7669,72.7
4.49006,50.7669,72.7
4.49006,50.7669,72.7
4.49006,50.7669,72.7
4.49006,50.7669,72.7
4.49006,50.7669,72.7
4.49006,50.7669,72.7
4.49006,50.7669,72.7
4.49006,50.7669,72.7
4.49006,50.7669,72.7
4.49006,50.7669,72.7
4.49006,50.7669,72.7
4.49006,50.7669,72.7
4.49006,50.7669,72.7
4.49006,50.7669,72.7
4.49006,50.7669,72.7
4.49006,50.7669,72.7
4.49006,50.7669,72.7
4.49006,50.7669,72.7
4.49006,50.7669,72.7
4.49006,50.7669,72.7
4.49006,50.7669,72.7
4.49006,50.7669,72.7
4.49006,50.7669,72.7
4.49006,50.7669,72.7
4.49006,50.7669,72.7
4.49006,50.7669,72.7
4.49006,50.7669,72.7
4.49006,50.7669,72.7
4.49006,50.7669,72.7
4.49006,50.7669,72.7
4.49006,50.7669,72.7
4.49006,50.7669,72.7
4.49006,50.7669,72.7
4.49006,50.7669,72.7
4.49006,50.7669,72.7
4.49006,50.7669,72.7
4.49006,50.7669,72.7
4.4904,50.7663,63.7
4.4904,50.7663,63.7
4.4904,50.7663,63.7
4.4904,50.7663,63.7
4.4904,50.7663,63.7
4.4904,50.7663,63.7
4.4904,50.7663,63.7
4.4904,50.7663,63.7
4.4904,50.7663,63.7
4.4904,50.7663,63.7
4.4904,50.7663,63.7
4.4904,50.7663,63.7
4.4904,50.7663,63.7
4.4904,50.7663,63.7
4.4904,50.7663,63.7
4.4904,50.7663,63.7
4.4904,50.7663,63.7
4.4904,50.7663,63.7
4.4904,50.7663,63.7
4.4904,50.7663,63.7
4.4904,50.7663,63.7
4.4904,50.7663,63.7
4.4904,50.7663,63.7
4.4904,50.7663,63.7
4.4904,50.7663,63.7
4.4904,50.7663,63.7
4.4904,50.7663,63.7
4.4904,50.7663,63.7
4.4904,50.7663,63.7
4.4904,50.7663,63.7
4.4904,50.7663,63.7
4.4904,50.7663,63.7
4.4904,50.7663,63.7
4.4904,50.7663,63.7
4.4904,50.7663,63.7
4.4904,50.7663,63.7
4.4904,50.7663,63.7
4.4904,50.7663,63.7
4.4904,50.7663,63.7
4.49007,50.7668,87.2
4.49007,50.7668,87.2
4.49007,50.7668,87.2
4.49007,50.7668,87.2
4.49007,50.7668,87.2
4.49007,50.7668,87.2
4.49007,50.7668,87.2
4.49007,50.7668,87.2
4.49007,50.7668,87.2
4.49007,50.7668,87.2
4.49007,50.7668,87.2
4.49007,50.7668,87.2
4.49007,50.7668,87.2
4.49007,50.7668,87.2
4.49007,50.7668,87.2
4.49007,50.7668,87.2
4.49007,50.7668,87.2
4.49007,50.7668,87.2
4.49007,50.7668,87.2
4.49007,50.7668,87.2
4.49007,50.7668,87.2
4.49007,50.7668,87.2
4.49007,50.7668,87.2
4.49007,50.7668,87.2
4.49007,50.7668,87.2
4.49007,50.7668,87.2
4.49007,50.7668,87.2
4.49007,50.7668,87.2
4.49007,50.7668,87.2
4.49007,50.7668,87.2
4.49007,50.7668,87.2
4.49007,50.7668,87.2
4.49007,50.7668,87.2
4.49007,50.7668,87.2
4.49007,50.7668,87.2
4.49007,50.7668,87.2
4.49007,50.7668,87.2
4.49007,50.7668,87.2
4.49007,50.7668,87.2
4.49007,50.7668,87.2
4.49007,50.7668,87.2
4.49007,50.7668,87.2
4.49007,50.7668,87.2
4.49007,50.7668,87.2
4.49007,50.7668,87.2
4.49007,50.7668,87.2
4.49007,50.7668,87.2
4.49007,50.7668,87.2
4.49007,50.7668,87.2
4.49007,50.7668,87.2
4.49007,50.7668,87.2
4.49007,50.7668,87.2
4.49007,50.7668,87.2
4.49007,50.7668,87.2
4.49007,50.7668,87.2
4.49007,50.7668,87.2
4.49007,50.7668,87.2
4.49007,50.7668,87.2
4.49007,50.7668,87.2
4.49007,50.7668,87.2
4.49007,50.7668,87.2
4.49007,50.7668,87.2
4.49007,50.7668,87.2
4.49007,50.7668,87.2
4.49007,50.7668,87.2
4.49007,50.7668,87.2
4.49007,50.7668,87.2
4.49007,50.7668,87.2
4.49007,50.7668,87.2
4.49007,50.7668,87.2
4.49007,50.7668,87.2
4.49007,50.7668,87.2
4.49007,50.7668,87.2
4.49007,50.7668,87.2
4.49007,50.7668,87.2
4.49007,50.7668,87.2
4.49007,50.7668,87.2
4.49007,50.7668,87.2
4.49007,50.7668,87.2
4.49007,50.7668,87.2
4.49007,50.7668,87.2
4.49007,50.7668,87.2
4.49007,50.7668,87.2
4.49007,50.7668,87.2
4.49007,50.7668,87.2
4.49007,50.7668,87.2
4.49007,50.7668,87.2
4.49007,50.7668,87.2
4.49007,50.7668,87.2
4.49007,50.7668,87.2
4.49007,50.7668,87.2
4.49007,50.7668,87.2
4.49007,50.7668,87.2
4.49007,50.7668,87.2
4.49007,50.7668,87.2
4.49007,50.7668,87.2
4.49007,50.7668,87.2
4.49007,50.7668,87.2
4.49007,50.7668,87.2
4.49007,50.7668,87.2
4.49007,50.7668,87.2
4.49007,50.7668,87.2
4.49007,50.7668,87.2
4.49007,50.7668,87.2
4.49007,50.7668,87.2
4.49007,50.7668,87.2
4.49007,50.7668,87.2
4.49007,50.7668,87.2
4.49007,50.7668,87.2
4.49007,50.7668,87.2
4.49007,50.7668,87.2
4.49007,50.7668,87.2
4.49007,50.7668,87.2
4.49007,50.7668,87.2
4.49007,50.7668,87.2
4.49007,50.7668,87.2
4.49007,50.7668,87.2
4.49007,50.7668,87.2
4.49007,50.7668,87.2
4.49007,50.7668,87.2
4.49007,50.7668,87.2
4.49007,50.7668,87.2
4.49007,50.7668,87.2
4.49007,50.7668,87.2
4.49007,50.7668,87.2
4.49007,50.7668,87.2
4.49007,50.7668,87.2
4.49007,50.7668,87.2
4.49007,50.7668,87.2
4.49007,50.7668,87.2
4.49007,50.7668,87.2
4.49007,50.7668,87.2
4.49007,50.7668,87.2
4.49007,50.7668,87.2
4.49007,50.7668,87.2
4.49007,50.7668,87.2
4.49013,50.7669,87.2
4.49013,50.7669,87.2
4.49013,50.7669,87.2
4.49013,50.7669,87.2
4.49013,50.7669,87.2
4.49013,50.7669,87.2
4.49013,50.7669,87.2
4.49013,50.7669,87.2
4.49013,50.7669,87.2
4.49013,50.7669,87.2
4.49013,50.7669,87.2
4.49013,50.7669,87.2
4.49013,50.7669,87.2
4.49013,50.7669,87.2
4.49013,50.7669,87.2
4.49013,50.7669,87.2
4.49013,50.7669,87.2
4.49013,50.7669,87.2
4.49013,50.7669,87.2
4.49013,50.7669,87.2
4.49013,50.7669,87.2
4.49013,50.7669,87.2
4.49013,50.7669,87.2
4.49013,50.7669,87.2
4.49013,50.7669,87.2
