<?xml version="1.0" encoding="UTF-8"?>
<kml xmlns="http://www.opengis.net/kml/2.2">
    <NetworkLink>
      <Link>
        <href>placemark.kml</href>
        <refreshMode>onInterval</refreshMode>
        <refreshInterval>2</refreshInterval>
      </Link>
      <refreshInterval>1</refreshInterval><refreshMode>onInterval</refreshMode>
    </NetworkLink>
</kml>
